%!PS-Adobe-3.0 EPSF-3.0
%%Title: /media/sf_hellmersjl/bitbucket/hellmers_ms/thesis_doc/Figures/M3YSKapproxcomparison.eps
%%Creator: matplotlib version 2.2.2, http://matplotlib.org/
%%CreationDate: Tue Dec  3 19:51:55 2019
%%Orientation: portrait
%%BoundingBox: 90 252 522 540
%%EndComments
%%BeginProlog
/mpldict 8 dict def
mpldict begin
/m { moveto } bind def
/l { lineto } bind def
/r { rlineto } bind def
/c { curveto } bind def
/cl { closepath } bind def
/box {
m
1 index 0 r
0 exch r
neg 0 r
cl
} bind def
/clipbox {
box
clip
newpath
} bind def
%!PS-Adobe-3.0 Resource-Font
%%Title: DejaVu Sans
%%Copyright: Copyright (c) 2003 by Bitstream, Inc. All Rights Reserved. Copyright (c) 2006 by Tavmjong Bah. All Rights Reserved. DejaVu changes are in public domain 
%%Creator: Converted from TrueType to type 3 by PPR
25 dict begin
/_d{bind def}bind def
/_m{moveto}_d
/_l{lineto}_d
/_cl{closepath eofill}_d
/_c{curveto}_d
/_sc{7 -1 roll{setcachedevice}{pop pop pop pop pop pop}ifelse}_d
/_e{exec}_d
/FontName /DejaVuSans def
/PaintType 0 def
/FontMatrix[.001 0 0 .001 0 0]def
/FontBBox[-1021 -463 1793 1232]def
/FontType 3 def
/Encoding [ /space /parenleft /parenright /hyphen /period /slash /zero /one /two /three /four /five /six /eight /D /M /R /Y /a /b /c /d /e /g /i /l /m /n /o /r /s /t /u /w /x /y ] def
/FontInfo 10 dict dup begin
/FamilyName (DejaVu Sans) def
/FullName (DejaVu Sans) def
/Notice (Copyright (c) 2003 by Bitstream, Inc. All Rights Reserved. Copyright (c) 2006 by Tavmjong Bah. All Rights Reserved. DejaVu changes are in public domain ) def
/Weight (Book) def
/Version (Version 2.35) def
/ItalicAngle 0.0 def
/isFixedPitch false def
/UnderlinePosition -130 def
/UnderlineThickness 90 def
end readonly def
/CharStrings 37 dict dup begin
/.notdef 0 def
/space{318 0 0 0 0 0 _sc
}_d
/parenleft{390 0 86 -131 310 759 _sc
310 759 _m
266 683 234 609 213 536 _c
191 463 181 389 181 314 _c
181 238 191 164 213 91 _c
234 17 266 -56 310 -131 _c
232 -131 _l
183 -54 146 20 122 94 _c
98 168 86 241 86 314 _c
86 386 98 459 122 533 _c
146 607 182 682 232 759 _c
310 759 _l
_cl}_d
/parenright{390 0 80 -131 304 759 _sc
80 759 _m
158 759 _l
206 682 243 607 267 533 _c
291 459 304 386 304 314 _c
304 241 291 168 267 94 _c
243 20 206 -54 158 -131 _c
80 -131 _l
123 -56 155 17 177 91 _c
198 164 209 238 209 314 _c
209 389 198 463 177 536 _c
155 609 123 683 80 759 _c
_cl}_d
/hyphen{361 0 49 234 312 314 _sc
49 314 _m
312 314 _l
312 234 _l
49 234 _l
49 314 _l
_cl}_d
/period{318 0 107 0 210 124 _sc
107 124 _m
210 124 _l
210 0 _l
107 0 _l
107 124 _l
_cl}_d
/slash{337 0 0 -92 337 729 _sc
254 729 _m
337 729 _l
83 -92 _l
0 -92 _l
254 729 _l
_cl}_d
/zero{636 0 66 -13 570 742 _sc
318 664 _m
267 664 229 639 203 589 _c
177 539 165 464 165 364 _c
165 264 177 189 203 139 _c
229 89 267 64 318 64 _c
369 64 407 89 433 139 _c
458 189 471 264 471 364 _c
471 464 458 539 433 589 _c
407 639 369 664 318 664 _c
318 742 _m
399 742 461 709 505 645 _c
548 580 570 486 570 364 _c
570 241 548 147 505 83 _c
461 19 399 -13 318 -13 _c
236 -13 173 19 130 83 _c
87 147 66 241 66 364 _c
66 486 87 580 130 645 _c
173 709 236 742 318 742 _c
_cl}_d
/one{636 0 110 0 544 729 _sc
124 83 _m
285 83 _l
285 639 _l
110 604 _l
110 694 _l
284 729 _l
383 729 _l
383 83 _l
544 83 _l
544 0 _l
124 0 _l
124 83 _l
_cl}_d
/two{{636 0 73 0 536 742 _sc
192 83 _m
536 83 _l
536 0 _l
73 0 _l
73 83 _l
110 121 161 173 226 239 _c
290 304 331 346 348 365 _c
380 400 402 430 414 455 _c
426 479 433 504 433 528 _c
433 566 419 598 392 622 _c
365 646 330 659 286 659 _c
255 659 222 653 188 643 _c
154 632 117 616 78 594 _c
78 694 _l
118 710 155 722 189 730 _c
223 738 255 742 284 742 _c
}_e{359 742 419 723 464 685 _c
509 647 532 597 532 534 _c
532 504 526 475 515 449 _c
504 422 484 390 454 354 _c
446 344 420 317 376 272 _c
332 227 271 164 192 83 _c
_cl}_e}_d
/three{{636 0 76 -13 556 742 _sc
406 393 _m
453 383 490 362 516 330 _c
542 298 556 258 556 212 _c
556 140 531 84 482 45 _c
432 6 362 -13 271 -13 _c
240 -13 208 -10 176 -4 _c
144 1 110 10 76 22 _c
76 117 _l
103 101 133 89 166 81 _c
198 73 232 69 268 69 _c
330 69 377 81 409 105 _c
441 129 458 165 458 212 _c
458 254 443 288 413 312 _c
383 336 341 349 287 349 _c
}_e{202 349 _l
202 430 _l
291 430 _l
339 430 376 439 402 459 _c
428 478 441 506 441 543 _c
441 580 427 609 401 629 _c
374 649 336 659 287 659 _c
260 659 231 656 200 650 _c
169 644 135 635 98 623 _c
98 711 _l
135 721 170 729 203 734 _c
235 739 266 742 296 742 _c
370 742 429 725 473 691 _c
517 657 539 611 539 553 _c
539 513 527 479 504 451 _c
481 423 448 403 406 393 _c
_cl}_e}_d
/four{636 0 49 0 580 729 _sc
378 643 _m
129 254 _l
378 254 _l
378 643 _l
352 729 _m
476 729 _l
476 254 _l
580 254 _l
580 172 _l
476 172 _l
476 0 _l
378 0 _l
378 172 _l
49 172 _l
49 267 _l
352 729 _l
_cl}_d
/five{{636 0 77 -13 549 729 _sc
108 729 _m
495 729 _l
495 646 _l
198 646 _l
198 467 _l
212 472 227 476 241 478 _c
255 480 270 482 284 482 _c
365 482 429 459 477 415 _c
525 370 549 310 549 234 _c
549 155 524 94 475 51 _c
426 8 357 -13 269 -13 _c
238 -13 207 -10 175 -6 _c
143 -1 111 6 77 17 _c
77 116 _l
106 100 136 88 168 80 _c
199 72 232 69 267 69 _c
}_e{323 69 368 83 401 113 _c
433 143 450 183 450 234 _c
450 284 433 324 401 354 _c
368 384 323 399 267 399 _c
241 399 214 396 188 390 _c
162 384 135 375 108 363 _c
108 729 _l
_cl}_e}_d
/six{{636 0 70 -13 573 742 _sc
330 404 _m
286 404 251 388 225 358 _c
199 328 186 286 186 234 _c
186 181 199 139 225 109 _c
251 79 286 64 330 64 _c
374 64 409 79 435 109 _c
461 139 474 181 474 234 _c
474 286 461 328 435 358 _c
409 388 374 404 330 404 _c
526 713 _m
526 623 _l
501 635 476 644 451 650 _c
425 656 400 659 376 659 _c
310 659 260 637 226 593 _c
}_e{192 549 172 482 168 394 _c
187 422 211 444 240 459 _c
269 474 301 482 336 482 _c
409 482 467 459 509 415 _c
551 371 573 310 573 234 _c
573 159 550 99 506 54 _c
462 9 403 -13 330 -13 _c
246 -13 181 19 137 83 _c
92 147 70 241 70 364 _c
70 479 97 571 152 639 _c
206 707 280 742 372 742 _c
396 742 421 739 447 735 _c
472 730 498 723 526 713 _c
_cl}_e}_d
/eight{{636 0 68 -13 568 742 _sc
318 346 _m
271 346 234 333 207 308 _c
180 283 167 249 167 205 _c
167 161 180 126 207 101 _c
234 76 271 64 318 64 _c
364 64 401 76 428 102 _c
455 127 469 161 469 205 _c
469 249 455 283 429 308 _c
402 333 365 346 318 346 _c
219 388 _m
177 398 144 418 120 447 _c
96 476 85 511 85 553 _c
85 611 105 657 147 691 _c
188 725 245 742 318 742 _c
}_e{390 742 447 725 489 691 _c
530 657 551 611 551 553 _c
551 511 539 476 515 447 _c
491 418 459 398 417 388 _c
464 377 501 355 528 323 _c
554 291 568 251 568 205 _c
568 134 546 80 503 43 _c
459 5 398 -13 318 -13 _c
237 -13 175 5 132 43 _c
89 80 68 134 68 205 _c
68 251 81 291 108 323 _c
134 355 171 377 219 388 _c
183 544 _m
183 506 194 476 218 455 _c
}_e{242 434 275 424 318 424 _c
360 424 393 434 417 455 _c
441 476 453 506 453 544 _c
453 582 441 611 417 632 _c
393 653 360 664 318 664 _c
275 664 242 653 218 632 _c
194 611 183 582 183 544 _c
_cl}_e}_d
/D{770 0 98 0 711 729 _sc
197 648 _m
197 81 _l
316 81 _l
416 81 490 103 537 149 _c
583 195 607 267 607 365 _c
607 463 583 534 537 580 _c
490 625 416 648 316 648 _c
197 648 _l
98 729 _m
301 729 _l
442 729 546 699 612 641 _c
678 582 711 490 711 365 _c
711 239 677 147 611 88 _c
545 29 441 0 301 0 _c
98 0 _l
98 729 _l
_cl}_d
/M{863 0 98 0 765 729 _sc
98 729 _m
245 729 _l
431 233 _l
618 729 _l
765 729 _l
765 0 _l
669 0 _l
669 640 _l
481 140 _l
382 140 _l
194 640 _l
194 0 _l
98 0 _l
98 729 _l
_cl}_d
/R{{695 0 98 0 666 729 _sc
444 342 _m
465 334 486 319 506 296 _c
526 272 546 240 566 199 _c
666 0 _l
560 0 _l
467 187 _l
443 235 419 268 397 284 _c
374 300 343 308 304 308 _c
197 308 _l
197 0 _l
98 0 _l
98 729 _l
321 729 _l
404 729 466 711 507 677 _c
548 642 569 589 569 519 _c
569 473 558 434 537 404 _c
515 374 484 353 444 342 _c
197 648 _m
197 389 _l
321 389 _l
}_e{368 389 404 400 428 422 _c
452 444 465 476 465 519 _c
465 561 452 593 428 615 _c
404 637 368 648 321 648 _c
197 648 _l
_cl}_e}_d
/Y{611 0 -1 0 613 729 _sc
-1 729 _m
104 729 _l
306 429 _l
507 729 _l
613 729 _l
355 347 _l
355 0 _l
256 0 _l
256 347 _l
-1 729 _l
_cl}_d
/a{{613 0 60 -13 522 560 _sc
343 275 _m
270 275 220 266 192 250 _c
164 233 150 205 150 165 _c
150 133 160 107 181 89 _c
202 70 231 61 267 61 _c
317 61 357 78 387 114 _c
417 149 432 196 432 255 _c
432 275 _l
343 275 _l
522 312 _m
522 0 _l
432 0 _l
432 83 _l
411 49 385 25 355 10 _c
325 -5 287 -13 243 -13 _c
187 -13 142 2 109 33 _c
76 64 60 106 60 159 _c
}_e{60 220 80 266 122 298 _c
163 329 224 345 306 345 _c
432 345 _l
432 354 _l
432 395 418 427 391 450 _c
364 472 326 484 277 484 _c
245 484 215 480 185 472 _c
155 464 127 453 100 439 _c
100 522 _l
132 534 164 544 195 550 _c
226 556 256 560 286 560 _c
365 560 424 539 463 498 _c
502 457 522 395 522 312 _c
_cl}_e}_d
/b{{635 0 91 -13 580 760 _sc
487 273 _m
487 339 473 390 446 428 _c
418 466 381 485 334 485 _c
286 485 249 466 222 428 _c
194 390 181 339 181 273 _c
181 207 194 155 222 117 _c
249 79 286 61 334 61 _c
381 61 418 79 446 117 _c
473 155 487 207 487 273 _c
181 464 _m
199 496 223 520 252 536 _c
281 552 316 560 356 560 _c
422 560 476 533 518 481 _c
559 428 580 359 580 273 _c
}_e{580 187 559 117 518 65 _c
476 13 422 -13 356 -13 _c
316 -13 281 -5 252 10 _c
223 25 199 49 181 82 _c
181 0 _l
91 0 _l
91 760 _l
181 760 _l
181 464 _l
_cl}_e}_d
/c{{550 0 55 -13 488 560 _sc
488 526 _m
488 442 _l
462 456 437 466 411 473 _c
385 480 360 484 334 484 _c
276 484 230 465 198 428 _c
166 391 150 339 150 273 _c
150 206 166 154 198 117 _c
230 80 276 62 334 62 _c
360 62 385 65 411 72 _c
437 79 462 90 488 104 _c
488 21 _l
462 9 436 0 410 -5 _c
383 -10 354 -13 324 -13 _c
242 -13 176 12 128 64 _c
}_e{79 115 55 185 55 273 _c
55 362 79 432 128 483 _c
177 534 244 560 330 560 _c
358 560 385 557 411 551 _c
437 545 463 537 488 526 _c
_cl}_e}_d
/d{{635 0 55 -13 544 760 _sc
454 464 _m
454 760 _l
544 760 _l
544 0 _l
454 0 _l
454 82 _l
435 49 411 25 382 10 _c
353 -5 319 -13 279 -13 _c
213 -13 159 13 117 65 _c
75 117 55 187 55 273 _c
55 359 75 428 117 481 _c
159 533 213 560 279 560 _c
319 560 353 552 382 536 _c
411 520 435 496 454 464 _c
148 273 _m
148 207 161 155 188 117 _c
215 79 253 61 301 61 _c
}_e{348 61 385 79 413 117 _c
440 155 454 207 454 273 _c
454 339 440 390 413 428 _c
385 466 348 485 301 485 _c
253 485 215 466 188 428 _c
161 390 148 339 148 273 _c
_cl}_e}_d
/e{{615 0 55 -13 562 560 _sc
562 296 _m
562 252 _l
149 252 _l
153 190 171 142 205 110 _c
238 78 284 62 344 62 _c
378 62 412 66 444 74 _c
476 82 509 95 541 113 _c
541 28 _l
509 14 476 3 442 -3 _c
408 -9 373 -13 339 -13 _c
251 -13 182 12 131 62 _c
80 112 55 181 55 268 _c
55 357 79 428 127 481 _c
175 533 241 560 323 560 _c
397 560 455 536 498 489 _c
}_e{540 441 562 377 562 296 _c
472 322 _m
471 371 457 410 431 440 _c
404 469 368 484 324 484 _c
274 484 234 469 204 441 _c
174 413 156 373 152 322 _c
472 322 _l
_cl}_e}_d
/g{{635 0 55 -207 544 560 _sc
454 280 _m
454 344 440 395 414 431 _c
387 467 349 485 301 485 _c
253 485 215 467 188 431 _c
161 395 148 344 148 280 _c
148 215 161 165 188 129 _c
215 93 253 75 301 75 _c
349 75 387 93 414 129 _c
440 165 454 215 454 280 _c
544 68 _m
544 -24 523 -93 482 -139 _c
440 -184 377 -207 292 -207 _c
260 -207 231 -204 203 -200 _c
175 -195 147 -188 121 -178 _c
}_e{121 -91 _l
147 -105 173 -115 199 -122 _c
225 -129 251 -133 278 -133 _c
336 -133 380 -117 410 -87 _c
439 -56 454 -10 454 52 _c
454 96 _l
435 64 411 40 382 24 _c
353 8 319 0 279 0 _c
211 0 157 25 116 76 _c
75 127 55 195 55 280 _c
55 364 75 432 116 483 _c
157 534 211 560 279 560 _c
319 560 353 552 382 536 _c
411 520 435 496 454 464 _c
454 547 _l
544 547 _l
}_e{544 68 _l
_cl}_e}_d
/i{278 0 94 0 184 760 _sc
94 547 _m
184 547 _l
184 0 _l
94 0 _l
94 547 _l
94 760 _m
184 760 _l
184 646 _l
94 646 _l
94 760 _l
_cl}_d
/l{278 0 94 0 184 760 _sc
94 760 _m
184 760 _l
184 0 _l
94 0 _l
94 760 _l
_cl}_d
/m{{974 0 91 0 889 560 _sc
520 442 _m
542 482 569 511 600 531 _c
631 550 668 560 711 560 _c
767 560 811 540 842 500 _c
873 460 889 403 889 330 _c
889 0 _l
799 0 _l
799 327 _l
799 379 789 418 771 444 _c
752 469 724 482 686 482 _c
639 482 602 466 575 435 _c
548 404 535 362 535 309 _c
535 0 _l
445 0 _l
445 327 _l
445 379 435 418 417 444 _c
398 469 369 482 331 482 _c
}_e{285 482 248 466 221 435 _c
194 404 181 362 181 309 _c
181 0 _l
91 0 _l
91 547 _l
181 547 _l
181 462 _l
201 495 226 520 255 536 _c
283 552 317 560 357 560 _c
397 560 430 550 458 530 _c
486 510 506 480 520 442 _c
_cl}_e}_d
/n{634 0 91 0 549 560 _sc
549 330 _m
549 0 _l
459 0 _l
459 327 _l
459 379 448 417 428 443 _c
408 469 378 482 338 482 _c
289 482 251 466 223 435 _c
195 404 181 362 181 309 _c
181 0 _l
91 0 _l
91 547 _l
181 547 _l
181 462 _l
202 494 227 519 257 535 _c
286 551 320 560 358 560 _c
420 560 468 540 500 501 _c
532 462 549 405 549 330 _c
_cl}_d
/o{612 0 55 -13 557 560 _sc
306 484 _m
258 484 220 465 192 427 _c
164 389 150 338 150 273 _c
150 207 163 156 191 118 _c
219 80 257 62 306 62 _c
354 62 392 80 420 118 _c
448 156 462 207 462 273 _c
462 337 448 389 420 427 _c
392 465 354 484 306 484 _c
306 560 _m
384 560 445 534 490 484 _c
534 433 557 363 557 273 _c
557 183 534 113 490 63 _c
445 12 384 -13 306 -13 _c
227 -13 165 12 121 63 _c
77 113 55 183 55 273 _c
55 363 77 433 121 484 _c
165 534 227 560 306 560 _c
_cl}_d
/r{411 0 91 0 411 560 _sc
411 463 _m
401 469 390 473 378 476 _c
366 478 353 480 339 480 _c
288 480 249 463 222 430 _c
194 397 181 350 181 288 _c
181 0 _l
91 0 _l
91 547 _l
181 547 _l
181 462 _l
199 495 224 520 254 536 _c
284 552 321 560 365 560 _c
371 560 378 559 386 559 _c
393 558 401 557 411 555 _c
411 463 _l
_cl}_d
/s{{521 0 54 -13 472 560 _sc
443 531 _m
443 446 _l
417 458 391 468 364 475 _c
336 481 308 485 279 485 _c
234 485 200 478 178 464 _c
156 450 145 430 145 403 _c
145 382 153 366 169 354 _c
185 342 217 330 265 320 _c
296 313 _l
360 299 405 279 432 255 _c
458 230 472 195 472 151 _c
472 100 452 60 412 31 _c
372 1 316 -13 246 -13 _c
216 -13 186 -10 154 -5 _c
}_e{122 0 89 8 54 20 _c
54 113 _l
87 95 120 82 152 74 _c
184 65 216 61 248 61 _c
290 61 323 68 346 82 _c
368 96 380 117 380 144 _c
380 168 371 187 355 200 _c
339 213 303 226 247 238 _c
216 245 _l
160 257 119 275 95 299 _c
70 323 58 356 58 399 _c
58 450 76 490 112 518 _c
148 546 200 560 268 560 _c
301 560 332 557 362 552 _c
391 547 418 540 443 531 _c
}_e{_cl}_e}_d
/t{392 0 27 0 368 702 _sc
183 702 _m
183 547 _l
368 547 _l
368 477 _l
183 477 _l
183 180 _l
183 135 189 106 201 94 _c
213 81 238 75 276 75 _c
368 75 _l
368 0 _l
276 0 _l
206 0 158 13 132 39 _c
106 65 93 112 93 180 _c
93 477 _l
27 477 _l
27 547 _l
93 547 _l
93 702 _l
183 702 _l
_cl}_d
/u{634 0 85 -13 543 560 _sc
85 216 _m
85 547 _l
175 547 _l
175 219 _l
175 167 185 129 205 103 _c
225 77 255 64 296 64 _c
344 64 383 79 411 110 _c
439 141 453 183 453 237 _c
453 547 _l
543 547 _l
543 0 _l
453 0 _l
453 84 _l
431 50 405 26 377 10 _c
348 -5 315 -13 277 -13 _c
214 -13 166 6 134 45 _c
101 83 85 140 85 216 _c
311 560 _m
311 560 _l
_cl}_d
/w{818 0 42 0 776 547 _sc
42 547 _m
132 547 _l
244 120 _l
356 547 _l
462 547 _l
574 120 _l
686 547 _l
776 547 _l
633 0 _l
527 0 _l
409 448 _l
291 0 _l
185 0 _l
42 547 _l
_cl}_d
/x{592 0 29 0 559 547 _sc
549 547 _m
351 281 _l
559 0 _l
453 0 _l
294 215 _l
135 0 _l
29 0 _l
241 286 _l
47 547 _l
153 547 _l
298 352 _l
443 547 _l
549 547 _l
_cl}_d
/y{592 0 30 -207 562 547 _sc
322 -50 _m
296 -114 271 -157 247 -177 _c
223 -197 191 -207 151 -207 _c
79 -207 _l
79 -132 _l
132 -132 _l
156 -132 175 -126 189 -114 _c
203 -102 218 -75 235 -31 _c
251 9 _l
30 547 _l
125 547 _l
296 119 _l
467 547 _l
562 547 _l
322 -50 _l
_cl}_d
end readonly def

/BuildGlyph
 {exch begin
 CharStrings exch
 2 copy known not{pop /.notdef}if
 true 3 1 roll get exec
 end}_d

/BuildChar {
 1 index /Encoding get exch get
 1 index /BuildGlyph get exec
}_d

FontName currentdict end definefont pop
end
%%EndProlog
mpldict begin
90 252 translate
432 288 0 0 clipbox
gsave
0 0 m
432 0 l
432 288 l
0 288 l
cl
1.000 setgray
fill
grestore
gsave
54 36 m
388.8 36 l
388.8 253.44 l
54 253.44 l
cl
1.000 setgray
fill
grestore
0.800 setlinewidth
1 setlinejoin
0 setlinecap
[] 0 setdash
0.000 setgray
gsave
/o {
gsave
newpath
translate
0.8 setlinewidth
1 setlinejoin
0 setlinecap
0 0 m
0 -3.5 l

gsave
0.000 setgray
fill
grestore
stroke
grestore
} bind def
106.863 36 o
grestore
/DejaVuSans findfont
10.000 scalefont
setfont
gsave
98.910033 21.406250 translate
0.000000 rotate
0.000000 0.000000 m /zero glyphshow
6.362305 0.000000 m /period glyphshow
9.541016 0.000000 m /two glyphshow
grestore
gsave
/o {
gsave
newpath
translate
0.8 setlinewidth
1 setlinejoin
0 setlinecap
0 0 m
0 -3.5 l

gsave
0.000 setgray
fill
grestore
stroke
grestore
} bind def
177.347 36 o
grestore
gsave
169.394243 21.406250 translate
0.000000 rotate
0.000000 0.000000 m /zero glyphshow
6.362305 0.000000 m /period glyphshow
9.541016 0.000000 m /four glyphshow
grestore
gsave
/o {
gsave
newpath
translate
0.8 setlinewidth
1 setlinejoin
0 setlinecap
0 0 m
0 -3.5 l

gsave
0.000 setgray
fill
grestore
stroke
grestore
} bind def
247.832 36 o
grestore
gsave
239.878454 21.406250 translate
0.000000 rotate
0.000000 0.000000 m /zero glyphshow
6.362305 0.000000 m /period glyphshow
9.541016 0.000000 m /six glyphshow
grestore
gsave
/o {
gsave
newpath
translate
0.8 setlinewidth
1 setlinejoin
0 setlinecap
0 0 m
0 -3.5 l

gsave
0.000 setgray
fill
grestore
stroke
grestore
} bind def
318.316 36 o
grestore
gsave
310.362664 21.406250 translate
0.000000 rotate
0.000000 0.000000 m /zero glyphshow
6.362305 0.000000 m /period glyphshow
9.541016 0.000000 m /eight glyphshow
grestore
gsave
/o {
gsave
newpath
translate
0.8 setlinewidth
1 setlinejoin
0 setlinecap
0 0 m
0 -3.5 l

gsave
0.000 setgray
fill
grestore
stroke
grestore
} bind def
388.8 36 o
grestore
gsave
380.846875 21.406250 translate
0.000000 rotate
0.000000 0.000000 m /one glyphshow
6.362305 0.000000 m /period glyphshow
9.541016 0.000000 m /zero glyphshow
grestore
gsave
181.900000 5.328125 translate
0.000000 rotate
/DejaVuSans findfont
10.0 scalefont
setfont
0.000000 0.976562 moveto
/D glyphshow

7.700195 0.976562 moveto
/e glyphshow

13.852539 0.976562 moveto
/n glyphshow

20.190430 0.976562 moveto
/s glyphshow

25.400391 0.976562 moveto
/i glyphshow

28.178711 0.976562 moveto
/t glyphshow

32.099609 0.976562 moveto
/y glyphshow

38.017578 0.976562 moveto
/space glyphshow

41.196289 0.976562 moveto
/parenleft glyphshow

45.097656 0.976562 moveto
/g glyphshow

51.445312 0.976562 moveto
/slash glyphshow

54.814453 0.976562 moveto
/c glyphshow

60.312500 0.976562 moveto
/m glyphshow

/DejaVuSans findfont
7.0 scalefont
setfont
70.149414 4.804688 moveto
/three glyphshow

/DejaVuSans findfont
10.0 scalefont
setfont
74.876465 0.976562 moveto
/parenright glyphshow


grestore
gsave
363.565625 8.734375 translate
0.000000 rotate
0.000000 0.000000 m /one glyphshow
6.362305 0.000000 m /e glyphshow
12.514648 0.000000 m /one glyphshow
18.876953 0.000000 m /one glyphshow
grestore
gsave
/o {
gsave
newpath
translate
0.8 setlinewidth
1 setlinejoin
0 setlinecap
0 0 m
-3.5 0 l

gsave
0.000 setgray
fill
grestore
stroke
grestore
} bind def
54 45.8836 o
grestore
gsave
31.093750 42.086761 translate
0.000000 rotate
0.000000 0.000000 m /zero glyphshow
6.362305 0.000000 m /period glyphshow
9.541016 0.000000 m /zero glyphshow
grestore
gsave
/o {
gsave
newpath
translate
0.8 setlinewidth
1 setlinejoin
0 setlinecap
0 0 m
-3.5 0 l

gsave
0.000 setgray
fill
grestore
stroke
grestore
} bind def
54 84.3182 o
grestore
gsave
31.093750 80.521339 translate
0.000000 rotate
0.000000 0.000000 m /zero glyphshow
6.362305 0.000000 m /period glyphshow
9.541016 0.000000 m /five glyphshow
grestore
gsave
/o {
gsave
newpath
translate
0.8 setlinewidth
1 setlinejoin
0 setlinecap
0 0 m
-3.5 0 l

gsave
0.000 setgray
fill
grestore
stroke
grestore
} bind def
54 122.753 o
grestore
gsave
31.093750 118.955917 translate
0.000000 rotate
0.000000 0.000000 m /one glyphshow
6.362305 0.000000 m /period glyphshow
9.541016 0.000000 m /zero glyphshow
grestore
gsave
/o {
gsave
newpath
translate
0.8 setlinewidth
1 setlinejoin
0 setlinecap
0 0 m
-3.5 0 l

gsave
0.000 setgray
fill
grestore
stroke
grestore
} bind def
54 161.187 o
grestore
gsave
31.093750 157.390495 translate
0.000000 rotate
0.000000 0.000000 m /one glyphshow
6.362305 0.000000 m /period glyphshow
9.541016 0.000000 m /five glyphshow
grestore
gsave
/o {
gsave
newpath
translate
0.8 setlinewidth
1 setlinejoin
0 setlinecap
0 0 m
-3.5 0 l

gsave
0.000 setgray
fill
grestore
stroke
grestore
} bind def
54 199.622 o
grestore
gsave
31.093750 195.825073 translate
0.000000 rotate
0.000000 0.000000 m /two glyphshow
6.362305 0.000000 m /period glyphshow
9.541016 0.000000 m /zero glyphshow
grestore
gsave
/o {
gsave
newpath
translate
0.8 setlinewidth
1 setlinejoin
0 setlinecap
0 0 m
-3.5 0 l

gsave
0.000 setgray
fill
grestore
stroke
grestore
} bind def
54 238.057 o
grestore
gsave
31.093750 234.259651 translate
0.000000 rotate
0.000000 0.000000 m /two glyphshow
6.362305 0.000000 m /period glyphshow
9.541016 0.000000 m /five glyphshow
grestore
gsave
25.015625 80.220000 translate
90.000000 rotate
/DejaVuSans findfont
10.0 scalefont
setfont
0.000000 0.976562 moveto
/R glyphshow

6.948242 0.976562 moveto
/x glyphshow

12.866211 0.976562 moveto
/n glyphshow

19.204102 0.976562 moveto
/space glyphshow

22.382812 0.976562 moveto
/R glyphshow

29.331055 0.976562 moveto
/a glyphshow

35.458984 0.976562 moveto
/t glyphshow

39.379883 0.976562 moveto
/e glyphshow

45.532227 0.976562 moveto
/space glyphshow

48.710938 0.976562 moveto
/parenleft glyphshow

52.612305 0.976562 moveto
/c glyphshow

58.110352 0.976562 moveto
/o glyphshow

64.228516 0.976562 moveto
/u glyphshow

70.566406 0.976562 moveto
/n glyphshow

76.904297 0.976562 moveto
/t glyphshow

80.825195 0.976562 moveto
/slash glyphshow

84.194336 0.976562 moveto
/c glyphshow

89.692383 0.976562 moveto
/m glyphshow

/DejaVuSans findfont
7.0 scalefont
setfont
99.529297 4.804688 moveto
/three glyphshow

/DejaVuSans findfont
10.0 scalefont
setfont
104.256348 0.976562 moveto
/slash glyphshow

107.625488 0.976562 moveto
/s glyphshow

112.835449 0.976562 moveto
/e glyphshow

118.987793 0.976562 moveto
/c glyphshow

124.485840 0.976562 moveto
/parenright glyphshow


grestore
gsave
54.000000 256.440000 translate
0.000000 rotate
0.000000 0.000000 m /one glyphshow
6.362305 0.000000 m /e glyphshow
12.514648 0.000000 m /three glyphshow
18.876953 0.000000 m /five glyphshow
grestore
1.500 setlinewidth
2 setlinecap
0.122 0.467 0.706 setrgbcolor
gsave
334.8 217.4 54 36 clipbox
39.903158 45.883636 m
43.392126 45.883636 l
46.881095 45.883636 l
50.370063 45.883636 l
53.859032 45.883636 l
57.348 45.883636 l
60.836968 45.883636 l
64.325937 45.883636 l
67.814905 45.883636 l
71.303874 45.883636 l
74.792842 45.883636 l
78.281811 45.883636 l
81.770779 45.883636 l
85.259747 45.883636 l
88.748716 45.883636 l
92.237684 45.883636 l
95.726653 45.883636 l
99.215621 45.883636 l
102.704589 45.883636 l
106.193558 45.883636 l
109.682526 45.883636 l
113.171495 45.883636 l
116.660463 45.883636 l
120.149432 45.883636 l
123.6384 45.883636 l
127.127368 45.883636 l
130.616337 45.883636 l
134.105305 45.883636 l
137.594274 45.883636 l
141.083242 45.883636 l
144.572211 45.883636 l
148.061179 45.883636 l
151.550147 45.883636 l
155.039116 45.883636 l
158.528084 45.883636 l
162.017053 45.883636 l
165.506021 45.883636 l
168.994989 45.883636 l
172.483958 45.883637 l
175.972926 45.883637 l
179.461895 45.883637 l
182.950863 45.883637 l
186.439832 45.883637 l
189.9288 45.883638 l
193.417768 45.883638 l
196.906737 45.88364 l
200.395705 45.883641 l
203.884674 45.883643 l
207.373642 45.883646 l
210.862611 45.883651 l
214.351579 45.883657 l
217.840547 45.883665 l
221.329516 45.883677 l
224.818484 45.883693 l
228.307453 45.883714 l
231.796421 45.883743 l
235.285389 45.883782 l
238.774358 45.883833 l
242.263326 45.883901 l
245.752295 45.883991 l
249.241263 45.884109 l
252.730232 45.884262 l
256.2192 45.884461 l
259.708168 45.884716 l
263.197137 45.885044 l
266.686105 45.885467 l
270.175074 45.886 l
273.664042 45.886677 l
277.153011 45.887531 l
280.641979 45.888606 l
284.130947 45.889954 l
287.619916 45.891636 l
291.108884 45.893726 l
294.597853 45.896315 l
298.086821 45.89951 l
301.575789 45.903445 l
305.064758 45.908276 l
308.553726 45.914192 l
312.042695 45.92142 l
315.531663 45.93023 l
319.020632 45.940773 l
322.5096 45.953635 l
325.998568 45.969208 l
329.487537 45.987754 l
332.976505 46.01013 l
336.465474 46.037082 l
339.954442 46.068783 l
343.443411 46.107034 l
346.932379 46.152014 l
350.421347 46.205846 l
353.910316 46.268976 l
357.399284 46.344211 l
360.888253 46.431903 l
364.377221 46.536413 l
367.866189 46.65715 l
371.355158 46.7997 l
374.844126 46.966456 l
378.333095 47.159586 l
381.822063 47.386648 l
385.311032 47.649266 l
388.8 47.952514 l
stroke
grestore
1.000 0.498 0.055 setrgbcolor
gsave
334.8 217.4 54 36 clipbox
39.903158 45.883636 m
43.392126 45.883636 l
46.881095 45.883636 l
50.370063 45.883636 l
53.859032 45.883636 l
57.348 45.883636 l
60.836968 45.883636 l
64.325937 45.883636 l
67.814905 45.883636 l
71.303874 45.883636 l
74.792842 45.883636 l
78.281811 45.883636 l
81.770779 45.883636 l
85.259747 45.883636 l
88.748716 45.883636 l
92.237684 45.883636 l
95.726653 45.883636 l
99.215621 45.883636 l
102.704589 45.883636 l
106.193558 45.883636 l
109.682526 45.883636 l
113.171495 45.883636 l
116.660463 45.883636 l
120.149432 45.883636 l
123.6384 45.883636 l
127.127368 45.883636 l
130.616337 45.883636 l
134.105305 45.883636 l
137.594274 45.883636 l
141.083242 45.883637 l
144.572211 45.883637 l
148.061179 45.883637 l
151.550147 45.883638 l
155.039116 45.883639 l
158.528084 45.88364 l
162.017053 45.883643 l
165.506021 45.883647 l
168.994989 45.883653 l
172.483958 45.883664 l
175.972926 45.883679 l
179.461895 45.883702 l
182.950863 45.883737 l
186.439832 45.883789 l
189.9288 45.883865 l
193.417768 45.883975 l
196.906737 45.884134 l
200.395705 45.88436 l
203.884674 45.88468 l
207.373642 45.885133 l
210.862611 45.885751 l
214.351579 45.886599 l
217.840547 45.887756 l
221.329516 45.889326 l
224.818484 45.891438 l
228.307453 45.894263 l
231.796421 45.898019 l
235.285389 45.902988 l
238.774358 45.90953 l
242.263326 45.918034 l
245.752295 45.92912 l
249.241263 45.943534 l
252.730232 45.961899 l
256.2192 45.985605 l
259.708168 46.015707 l
263.197137 46.0539 l
266.686105 46.102604 l
270.175074 46.163327 l
273.664042 46.239529 l
277.153011 46.334792 l
280.641979 46.453434 l
284.130947 46.600632 l
287.619916 46.782532 l
291.108884 47.006391 l
294.597853 47.280886 l
298.086821 47.61652 l
301.575789 48.025876 l
305.064758 48.523902 l
308.553726 49.128325 l
312.042695 49.86016 l
315.531663 50.744285 l
319.020632 51.792598 l
322.5096 53.061102 l
325.998568 54.584213 l
329.487537 56.382111 l
332.976505 58.534211 l
336.465474 61.105892 l
339.954442 64.104689 l
343.443411 67.69662 l
346.932379 71.885579 l
350.421347 76.862596 l
353.910316 82.652716 l
357.399284 89.50419 l
360.888253 97.427449 l
364.377221 106.806829 l
367.866189 117.557147 l
371.355158 130.164102 l
374.844126 144.808519 l
378.333095 161.645961 l
381.822063 181.314119 l
385.311032 203.90244 l
388.8 229.805365 l
stroke
grestore
0.173 0.627 0.173 setrgbcolor
gsave
334.8 217.4 54 36 clipbox
39.903158 45.883636 m
43.392126 45.883636 l
46.881095 45.883636 l
50.370063 45.883636 l
53.859032 45.883636 l
57.348 45.883636 l
60.836968 45.883636 l
64.325937 45.883636 l
67.814905 45.883636 l
71.303874 45.883636 l
74.792842 45.883636 l
78.281811 45.883636 l
81.770779 45.883636 l
85.259747 45.883636 l
88.748716 45.883636 l
92.237684 45.883636 l
95.726653 45.883636 l
99.215621 45.883636 l
102.704589 45.883636 l
106.193558 45.883636 l
109.682526 45.883636 l
113.171495 45.883636 l
116.660463 45.883636 l
120.149432 45.883636 l
123.6384 45.883636 l
127.127368 45.883636 l
130.616337 45.883636 l
134.105305 45.883636 l
137.594274 45.883636 l
141.083242 45.883637 l
144.572211 45.883637 l
148.061179 45.883637 l
151.550147 45.883638 l
155.039116 45.883639 l
158.528084 45.883641 l
162.017053 45.883643 l
165.506021 45.883648 l
168.994989 45.883655 l
172.483958 45.883666 l
175.972926 45.883683 l
179.461895 45.883708 l
182.950863 45.883746 l
186.439832 45.883801 l
189.9288 45.883883 l
193.417768 45.884002 l
196.906737 45.884173 l
200.395705 45.884417 l
203.884674 45.884763 l
207.373642 45.885252 l
210.862611 45.885919 l
214.351579 45.886833 l
217.840547 45.888081 l
221.329516 45.889774 l
224.818484 45.892052 l
228.307453 45.895098 l
231.796421 45.899147 l
235.285389 45.904504 l
238.774358 45.911556 l
242.263326 45.920721 l
245.752295 45.932668 l
249.241263 45.9482 l
252.730232 45.967986 l
256.2192 45.993526 l
259.708168 46.025953 l
263.197137 46.067092 l
266.686105 46.119549 l
270.175074 46.184944 l
273.664042 46.267001 l
277.153011 46.369576 l
280.641979 46.497314 l
284.130947 46.655783 l
287.619916 46.851595 l
291.108884 47.092558 l
294.597853 47.388 l
298.086821 47.749218 l
301.575789 48.189744 l
305.064758 48.725651 l
308.553726 49.376 l
312.042695 50.163383 l
315.531663 51.114548 l
319.020632 52.242264 l
322.5096 53.606758 l
325.998568 55.245014 l
329.487537 57.17869 l
332.976505 59.493168 l
336.465474 62.258704 l
339.954442 65.483324 l
343.443411 69.345511 l
346.932379 73.849341 l
350.421347 79.200144 l
353.910316 85.424708 l
357.399284 92.789835 l
360.888253 101.306547 l
364.377221 111.387887 l
367.866189 122.942016 l
371.355158 136.490855 l
374.844126 152.228471 l
378.333095 170.321738 l
381.822063 191.455734 l
385.311032 215.726124 l
388.8 243.556364 l
stroke
grestore
0.800 setlinewidth
0 setlinejoin
[] 0 setdash
0.000 setgray
gsave
54 36 m
54 253.44 l
stroke
grestore
gsave
388.8 36 m
388.8 253.44 l
stroke
grestore
gsave
54 36 m
388.8 36 l
stroke
grestore
gsave
54 253.44 m
388.8 253.44 l
stroke
grestore
1.000 setlinewidth
0 setlinecap
0.800 setgray
gsave
61 201.424375 m
176.234375 201.424375 l
177.567708 201.424375 178.234375 202.091042 178.234375 203.424375 c
178.234375 246.44 l
178.234375 247.773333 177.567708 248.44 176.234375 248.44 c
61 248.44 l
59.666667 248.44 59 247.773333 59 246.44 c
59 203.424375 l
59 202.091042 59.666667 201.424375 61 201.424375 c
cl
gsave
1.000 setgray
fill
grestore
stroke
grestore
1.500 setlinewidth
1 setlinejoin
2 setlinecap
[] 0 setdash
0.122 0.467 0.706 setrgbcolor
gsave
63 240.34625 m
83 240.34625 l
stroke
grestore
0.000 setgray
gsave
91.000000 236.846250 translate
0.000000 rotate
0.000000 0.000000 m /M glyphshow
8.627930 0.000000 m /three glyphshow
14.990234 0.000000 m /Y glyphshow
21.083008 0.000000 m /hyphen glyphshow
24.691406 0.000000 m /b glyphshow
31.039062 0.000000 m /c glyphshow
36.537109 0.000000 m /c glyphshow
42.035156 0.000000 m /hyphen glyphshow
45.643555 0.000000 m /s glyphshow
50.853516 0.000000 m /t glyphshow
54.774414 0.000000 m /a glyphshow
60.902344 0.000000 m /t glyphshow
64.823242 0.000000 m /i glyphshow
67.601562 0.000000 m /c glyphshow
grestore
1.000 0.498 0.055 setrgbcolor
gsave
63 225.674375 m
83 225.674375 l
stroke
grestore
0.000 setgray
gsave
91.000000 222.174375 translate
0.000000 rotate
0.000000 0.000000 m /M glyphshow
8.627930 0.000000 m /three glyphshow
14.990234 0.000000 m /Y glyphshow
21.083008 0.000000 m /hyphen glyphshow
24.691406 0.000000 m /b glyphshow
31.039062 0.000000 m /c glyphshow
36.537109 0.000000 m /c glyphshow
42.035156 0.000000 m /hyphen glyphshow
45.643555 0.000000 m /r glyphshow
49.754883 0.000000 m /e glyphshow
55.907227 0.000000 m /l glyphshow
58.685547 0.000000 m /a glyphshow
64.813477 0.000000 m /x glyphshow
70.731445 0.000000 m /e glyphshow
76.883789 0.000000 m /d glyphshow
grestore
0.173 0.627 0.173 setrgbcolor
gsave
63 211.0025 m
83 211.0025 l
stroke
grestore
0.000 setgray
gsave
91.000000 207.502500 translate
0.000000 rotate
0.000000 0.000000 m /M glyphshow
8.627930 0.000000 m /three glyphshow
14.990234 0.000000 m /Y glyphshow
21.083008 0.000000 m /hyphen glyphshow
24.691406 0.000000 m /b glyphshow
31.039062 0.000000 m /c glyphshow
36.537109 0.000000 m /c glyphshow
42.035156 0.000000 m /hyphen glyphshow
45.643555 0.000000 m /w glyphshow
53.822266 0.000000 m /s glyphshow
grestore

end
showpage
