%!PS-Adobe-3.0 EPSF-3.0
%%Title: /media/sf_hellmersjl/bitbucket/hellmers_ms/thesis_doc/Figures/RMFSKapproxcomparison-with-title.eps
%%Creator: matplotlib version 2.2.2, http://matplotlib.org/
%%CreationDate: Tue Dec  3 19:51:55 2019
%%Orientation: portrait
%%BoundingBox: 90 252 522 540
%%EndComments
%%BeginProlog
/mpldict 8 dict def
mpldict begin
/m { moveto } bind def
/l { lineto } bind def
/r { rlineto } bind def
/c { curveto } bind def
/cl { closepath } bind def
/box {
m
1 index 0 r
0 exch r
neg 0 r
cl
} bind def
/clipbox {
box
clip
newpath
} bind def
%!PS-Adobe-3.0 Resource-Font
%%Title: DejaVu Sans
%%Copyright: Copyright (c) 2003 by Bitstream, Inc. All Rights Reserved. Copyright (c) 2006 by Tavmjong Bah. All Rights Reserved. DejaVu changes are in public domain 
%%Creator: Converted from TrueType to type 3 by PPR
25 dict begin
/_d{bind def}bind def
/_m{moveto}_d
/_l{lineto}_d
/_cl{closepath eofill}_d
/_c{curveto}_d
/_sc{7 -1 roll{setcachedevice}{pop pop pop pop pop pop}ifelse}_d
/_e{exec}_d
/FontName /DejaVuSans def
/PaintType 0 def
/FontMatrix[.001 0 0 .001 0 0]def
/FontBBox[-1021 -463 1793 1232]def
/FontType 3 def
/Encoding [ /space /parenleft /parenright /hyphen /period /slash /zero /one /two /three /four /six /eight /D /F /L /M /R /a /c /d /e /f /g /i /l /m /n /o /r /s /t /u /v /w /x /y ] def
/FontInfo 10 dict dup begin
/FamilyName (DejaVu Sans) def
/FullName (DejaVu Sans) def
/Notice (Copyright (c) 2003 by Bitstream, Inc. All Rights Reserved. Copyright (c) 2006 by Tavmjong Bah. All Rights Reserved. DejaVu changes are in public domain ) def
/Weight (Book) def
/Version (Version 2.35) def
/ItalicAngle 0.0 def
/isFixedPitch false def
/UnderlinePosition -130 def
/UnderlineThickness 90 def
end readonly def
/CharStrings 38 dict dup begin
/.notdef 0 def
/space{318 0 0 0 0 0 _sc
}_d
/parenleft{390 0 86 -131 310 759 _sc
310 759 _m
266 683 234 609 213 536 _c
191 463 181 389 181 314 _c
181 238 191 164 213 91 _c
234 17 266 -56 310 -131 _c
232 -131 _l
183 -54 146 20 122 94 _c
98 168 86 241 86 314 _c
86 386 98 459 122 533 _c
146 607 182 682 232 759 _c
310 759 _l
_cl}_d
/parenright{390 0 80 -131 304 759 _sc
80 759 _m
158 759 _l
206 682 243 607 267 533 _c
291 459 304 386 304 314 _c
304 241 291 168 267 94 _c
243 20 206 -54 158 -131 _c
80 -131 _l
123 -56 155 17 177 91 _c
198 164 209 238 209 314 _c
209 389 198 463 177 536 _c
155 609 123 683 80 759 _c
_cl}_d
/hyphen{361 0 49 234 312 314 _sc
49 314 _m
312 314 _l
312 234 _l
49 234 _l
49 314 _l
_cl}_d
/period{318 0 107 0 210 124 _sc
107 124 _m
210 124 _l
210 0 _l
107 0 _l
107 124 _l
_cl}_d
/slash{337 0 0 -92 337 729 _sc
254 729 _m
337 729 _l
83 -92 _l
0 -92 _l
254 729 _l
_cl}_d
/zero{636 0 66 -13 570 742 _sc
318 664 _m
267 664 229 639 203 589 _c
177 539 165 464 165 364 _c
165 264 177 189 203 139 _c
229 89 267 64 318 64 _c
369 64 407 89 433 139 _c
458 189 471 264 471 364 _c
471 464 458 539 433 589 _c
407 639 369 664 318 664 _c
318 742 _m
399 742 461 709 505 645 _c
548 580 570 486 570 364 _c
570 241 548 147 505 83 _c
461 19 399 -13 318 -13 _c
236 -13 173 19 130 83 _c
87 147 66 241 66 364 _c
66 486 87 580 130 645 _c
173 709 236 742 318 742 _c
_cl}_d
/one{636 0 110 0 544 729 _sc
124 83 _m
285 83 _l
285 639 _l
110 604 _l
110 694 _l
284 729 _l
383 729 _l
383 83 _l
544 83 _l
544 0 _l
124 0 _l
124 83 _l
_cl}_d
/two{{636 0 73 0 536 742 _sc
192 83 _m
536 83 _l
536 0 _l
73 0 _l
73 83 _l
110 121 161 173 226 239 _c
290 304 331 346 348 365 _c
380 400 402 430 414 455 _c
426 479 433 504 433 528 _c
433 566 419 598 392 622 _c
365 646 330 659 286 659 _c
255 659 222 653 188 643 _c
154 632 117 616 78 594 _c
78 694 _l
118 710 155 722 189 730 _c
223 738 255 742 284 742 _c
}_e{359 742 419 723 464 685 _c
509 647 532 597 532 534 _c
532 504 526 475 515 449 _c
504 422 484 390 454 354 _c
446 344 420 317 376 272 _c
332 227 271 164 192 83 _c
_cl}_e}_d
/three{{636 0 76 -13 556 742 _sc
406 393 _m
453 383 490 362 516 330 _c
542 298 556 258 556 212 _c
556 140 531 84 482 45 _c
432 6 362 -13 271 -13 _c
240 -13 208 -10 176 -4 _c
144 1 110 10 76 22 _c
76 117 _l
103 101 133 89 166 81 _c
198 73 232 69 268 69 _c
330 69 377 81 409 105 _c
441 129 458 165 458 212 _c
458 254 443 288 413 312 _c
383 336 341 349 287 349 _c
}_e{202 349 _l
202 430 _l
291 430 _l
339 430 376 439 402 459 _c
428 478 441 506 441 543 _c
441 580 427 609 401 629 _c
374 649 336 659 287 659 _c
260 659 231 656 200 650 _c
169 644 135 635 98 623 _c
98 711 _l
135 721 170 729 203 734 _c
235 739 266 742 296 742 _c
370 742 429 725 473 691 _c
517 657 539 611 539 553 _c
539 513 527 479 504 451 _c
481 423 448 403 406 393 _c
_cl}_e}_d
/four{636 0 49 0 580 729 _sc
378 643 _m
129 254 _l
378 254 _l
378 643 _l
352 729 _m
476 729 _l
476 254 _l
580 254 _l
580 172 _l
476 172 _l
476 0 _l
378 0 _l
378 172 _l
49 172 _l
49 267 _l
352 729 _l
_cl}_d
/six{{636 0 70 -13 573 742 _sc
330 404 _m
286 404 251 388 225 358 _c
199 328 186 286 186 234 _c
186 181 199 139 225 109 _c
251 79 286 64 330 64 _c
374 64 409 79 435 109 _c
461 139 474 181 474 234 _c
474 286 461 328 435 358 _c
409 388 374 404 330 404 _c
526 713 _m
526 623 _l
501 635 476 644 451 650 _c
425 656 400 659 376 659 _c
310 659 260 637 226 593 _c
}_e{192 549 172 482 168 394 _c
187 422 211 444 240 459 _c
269 474 301 482 336 482 _c
409 482 467 459 509 415 _c
551 371 573 310 573 234 _c
573 159 550 99 506 54 _c
462 9 403 -13 330 -13 _c
246 -13 181 19 137 83 _c
92 147 70 241 70 364 _c
70 479 97 571 152 639 _c
206 707 280 742 372 742 _c
396 742 421 739 447 735 _c
472 730 498 723 526 713 _c
_cl}_e}_d
/eight{{636 0 68 -13 568 742 _sc
318 346 _m
271 346 234 333 207 308 _c
180 283 167 249 167 205 _c
167 161 180 126 207 101 _c
234 76 271 64 318 64 _c
364 64 401 76 428 102 _c
455 127 469 161 469 205 _c
469 249 455 283 429 308 _c
402 333 365 346 318 346 _c
219 388 _m
177 398 144 418 120 447 _c
96 476 85 511 85 553 _c
85 611 105 657 147 691 _c
188 725 245 742 318 742 _c
}_e{390 742 447 725 489 691 _c
530 657 551 611 551 553 _c
551 511 539 476 515 447 _c
491 418 459 398 417 388 _c
464 377 501 355 528 323 _c
554 291 568 251 568 205 _c
568 134 546 80 503 43 _c
459 5 398 -13 318 -13 _c
237 -13 175 5 132 43 _c
89 80 68 134 68 205 _c
68 251 81 291 108 323 _c
134 355 171 377 219 388 _c
183 544 _m
183 506 194 476 218 455 _c
}_e{242 434 275 424 318 424 _c
360 424 393 434 417 455 _c
441 476 453 506 453 544 _c
453 582 441 611 417 632 _c
393 653 360 664 318 664 _c
275 664 242 653 218 632 _c
194 611 183 582 183 544 _c
_cl}_e}_d
/D{770 0 98 0 711 729 _sc
197 648 _m
197 81 _l
316 81 _l
416 81 490 103 537 149 _c
583 195 607 267 607 365 _c
607 463 583 534 537 580 _c
490 625 416 648 316 648 _c
197 648 _l
98 729 _m
301 729 _l
442 729 546 699 612 641 _c
678 582 711 490 711 365 _c
711 239 677 147 611 88 _c
545 29 441 0 301 0 _c
98 0 _l
98 729 _l
_cl}_d
/F{575 0 98 0 517 729 _sc
98 729 _m
517 729 _l
517 646 _l
197 646 _l
197 431 _l
486 431 _l
486 348 _l
197 348 _l
197 0 _l
98 0 _l
98 729 _l
_cl}_d
/L{557 0 98 0 552 729 _sc
98 729 _m
197 729 _l
197 83 _l
552 83 _l
552 0 _l
98 0 _l
98 729 _l
_cl}_d
/M{863 0 98 0 765 729 _sc
98 729 _m
245 729 _l
431 233 _l
618 729 _l
765 729 _l
765 0 _l
669 0 _l
669 640 _l
481 140 _l
382 140 _l
194 640 _l
194 0 _l
98 0 _l
98 729 _l
_cl}_d
/R{{695 0 98 0 666 729 _sc
444 342 _m
465 334 486 319 506 296 _c
526 272 546 240 566 199 _c
666 0 _l
560 0 _l
467 187 _l
443 235 419 268 397 284 _c
374 300 343 308 304 308 _c
197 308 _l
197 0 _l
98 0 _l
98 729 _l
321 729 _l
404 729 466 711 507 677 _c
548 642 569 589 569 519 _c
569 473 558 434 537 404 _c
515 374 484 353 444 342 _c
197 648 _m
197 389 _l
321 389 _l
}_e{368 389 404 400 428 422 _c
452 444 465 476 465 519 _c
465 561 452 593 428 615 _c
404 637 368 648 321 648 _c
197 648 _l
_cl}_e}_d
/a{{613 0 60 -13 522 560 _sc
343 275 _m
270 275 220 266 192 250 _c
164 233 150 205 150 165 _c
150 133 160 107 181 89 _c
202 70 231 61 267 61 _c
317 61 357 78 387 114 _c
417 149 432 196 432 255 _c
432 275 _l
343 275 _l
522 312 _m
522 0 _l
432 0 _l
432 83 _l
411 49 385 25 355 10 _c
325 -5 287 -13 243 -13 _c
187 -13 142 2 109 33 _c
76 64 60 106 60 159 _c
}_e{60 220 80 266 122 298 _c
163 329 224 345 306 345 _c
432 345 _l
432 354 _l
432 395 418 427 391 450 _c
364 472 326 484 277 484 _c
245 484 215 480 185 472 _c
155 464 127 453 100 439 _c
100 522 _l
132 534 164 544 195 550 _c
226 556 256 560 286 560 _c
365 560 424 539 463 498 _c
502 457 522 395 522 312 _c
_cl}_e}_d
/c{{550 0 55 -13 488 560 _sc
488 526 _m
488 442 _l
462 456 437 466 411 473 _c
385 480 360 484 334 484 _c
276 484 230 465 198 428 _c
166 391 150 339 150 273 _c
150 206 166 154 198 117 _c
230 80 276 62 334 62 _c
360 62 385 65 411 72 _c
437 79 462 90 488 104 _c
488 21 _l
462 9 436 0 410 -5 _c
383 -10 354 -13 324 -13 _c
242 -13 176 12 128 64 _c
}_e{79 115 55 185 55 273 _c
55 362 79 432 128 483 _c
177 534 244 560 330 560 _c
358 560 385 557 411 551 _c
437 545 463 537 488 526 _c
_cl}_e}_d
/d{{635 0 55 -13 544 760 _sc
454 464 _m
454 760 _l
544 760 _l
544 0 _l
454 0 _l
454 82 _l
435 49 411 25 382 10 _c
353 -5 319 -13 279 -13 _c
213 -13 159 13 117 65 _c
75 117 55 187 55 273 _c
55 359 75 428 117 481 _c
159 533 213 560 279 560 _c
319 560 353 552 382 536 _c
411 520 435 496 454 464 _c
148 273 _m
148 207 161 155 188 117 _c
215 79 253 61 301 61 _c
}_e{348 61 385 79 413 117 _c
440 155 454 207 454 273 _c
454 339 440 390 413 428 _c
385 466 348 485 301 485 _c
253 485 215 466 188 428 _c
161 390 148 339 148 273 _c
_cl}_e}_d
/e{{615 0 55 -13 562 560 _sc
562 296 _m
562 252 _l
149 252 _l
153 190 171 142 205 110 _c
238 78 284 62 344 62 _c
378 62 412 66 444 74 _c
476 82 509 95 541 113 _c
541 28 _l
509 14 476 3 442 -3 _c
408 -9 373 -13 339 -13 _c
251 -13 182 12 131 62 _c
80 112 55 181 55 268 _c
55 357 79 428 127 481 _c
175 533 241 560 323 560 _c
397 560 455 536 498 489 _c
}_e{540 441 562 377 562 296 _c
472 322 _m
471 371 457 410 431 440 _c
404 469 368 484 324 484 _c
274 484 234 469 204 441 _c
174 413 156 373 152 322 _c
472 322 _l
_cl}_e}_d
/f{352 0 23 0 371 760 _sc
371 760 _m
371 685 _l
285 685 _l
253 685 230 678 218 665 _c
205 652 199 629 199 595 _c
199 547 _l
347 547 _l
347 477 _l
199 477 _l
199 0 _l
109 0 _l
109 477 _l
23 477 _l
23 547 _l
109 547 _l
109 585 _l
109 645 123 690 151 718 _c
179 746 224 760 286 760 _c
371 760 _l
_cl}_d
/g{{635 0 55 -207 544 560 _sc
454 280 _m
454 344 440 395 414 431 _c
387 467 349 485 301 485 _c
253 485 215 467 188 431 _c
161 395 148 344 148 280 _c
148 215 161 165 188 129 _c
215 93 253 75 301 75 _c
349 75 387 93 414 129 _c
440 165 454 215 454 280 _c
544 68 _m
544 -24 523 -93 482 -139 _c
440 -184 377 -207 292 -207 _c
260 -207 231 -204 203 -200 _c
175 -195 147 -188 121 -178 _c
}_e{121 -91 _l
147 -105 173 -115 199 -122 _c
225 -129 251 -133 278 -133 _c
336 -133 380 -117 410 -87 _c
439 -56 454 -10 454 52 _c
454 96 _l
435 64 411 40 382 24 _c
353 8 319 0 279 0 _c
211 0 157 25 116 76 _c
75 127 55 195 55 280 _c
55 364 75 432 116 483 _c
157 534 211 560 279 560 _c
319 560 353 552 382 536 _c
411 520 435 496 454 464 _c
454 547 _l
544 547 _l
}_e{544 68 _l
_cl}_e}_d
/i{278 0 94 0 184 760 _sc
94 547 _m
184 547 _l
184 0 _l
94 0 _l
94 547 _l
94 760 _m
184 760 _l
184 646 _l
94 646 _l
94 760 _l
_cl}_d
/l{278 0 94 0 184 760 _sc
94 760 _m
184 760 _l
184 0 _l
94 0 _l
94 760 _l
_cl}_d
/m{{974 0 91 0 889 560 _sc
520 442 _m
542 482 569 511 600 531 _c
631 550 668 560 711 560 _c
767 560 811 540 842 500 _c
873 460 889 403 889 330 _c
889 0 _l
799 0 _l
799 327 _l
799 379 789 418 771 444 _c
752 469 724 482 686 482 _c
639 482 602 466 575 435 _c
548 404 535 362 535 309 _c
535 0 _l
445 0 _l
445 327 _l
445 379 435 418 417 444 _c
398 469 369 482 331 482 _c
}_e{285 482 248 466 221 435 _c
194 404 181 362 181 309 _c
181 0 _l
91 0 _l
91 547 _l
181 547 _l
181 462 _l
201 495 226 520 255 536 _c
283 552 317 560 357 560 _c
397 560 430 550 458 530 _c
486 510 506 480 520 442 _c
_cl}_e}_d
/n{634 0 91 0 549 560 _sc
549 330 _m
549 0 _l
459 0 _l
459 327 _l
459 379 448 417 428 443 _c
408 469 378 482 338 482 _c
289 482 251 466 223 435 _c
195 404 181 362 181 309 _c
181 0 _l
91 0 _l
91 547 _l
181 547 _l
181 462 _l
202 494 227 519 257 535 _c
286 551 320 560 358 560 _c
420 560 468 540 500 501 _c
532 462 549 405 549 330 _c
_cl}_d
/o{612 0 55 -13 557 560 _sc
306 484 _m
258 484 220 465 192 427 _c
164 389 150 338 150 273 _c
150 207 163 156 191 118 _c
219 80 257 62 306 62 _c
354 62 392 80 420 118 _c
448 156 462 207 462 273 _c
462 337 448 389 420 427 _c
392 465 354 484 306 484 _c
306 560 _m
384 560 445 534 490 484 _c
534 433 557 363 557 273 _c
557 183 534 113 490 63 _c
445 12 384 -13 306 -13 _c
227 -13 165 12 121 63 _c
77 113 55 183 55 273 _c
55 363 77 433 121 484 _c
165 534 227 560 306 560 _c
_cl}_d
/r{411 0 91 0 411 560 _sc
411 463 _m
401 469 390 473 378 476 _c
366 478 353 480 339 480 _c
288 480 249 463 222 430 _c
194 397 181 350 181 288 _c
181 0 _l
91 0 _l
91 547 _l
181 547 _l
181 462 _l
199 495 224 520 254 536 _c
284 552 321 560 365 560 _c
371 560 378 559 386 559 _c
393 558 401 557 411 555 _c
411 463 _l
_cl}_d
/s{{521 0 54 -13 472 560 _sc
443 531 _m
443 446 _l
417 458 391 468 364 475 _c
336 481 308 485 279 485 _c
234 485 200 478 178 464 _c
156 450 145 430 145 403 _c
145 382 153 366 169 354 _c
185 342 217 330 265 320 _c
296 313 _l
360 299 405 279 432 255 _c
458 230 472 195 472 151 _c
472 100 452 60 412 31 _c
372 1 316 -13 246 -13 _c
216 -13 186 -10 154 -5 _c
}_e{122 0 89 8 54 20 _c
54 113 _l
87 95 120 82 152 74 _c
184 65 216 61 248 61 _c
290 61 323 68 346 82 _c
368 96 380 117 380 144 _c
380 168 371 187 355 200 _c
339 213 303 226 247 238 _c
216 245 _l
160 257 119 275 95 299 _c
70 323 58 356 58 399 _c
58 450 76 490 112 518 _c
148 546 200 560 268 560 _c
301 560 332 557 362 552 _c
391 547 418 540 443 531 _c
}_e{_cl}_e}_d
/t{392 0 27 0 368 702 _sc
183 702 _m
183 547 _l
368 547 _l
368 477 _l
183 477 _l
183 180 _l
183 135 189 106 201 94 _c
213 81 238 75 276 75 _c
368 75 _l
368 0 _l
276 0 _l
206 0 158 13 132 39 _c
106 65 93 112 93 180 _c
93 477 _l
27 477 _l
27 547 _l
93 547 _l
93 702 _l
183 702 _l
_cl}_d
/u{634 0 85 -13 543 560 _sc
85 216 _m
85 547 _l
175 547 _l
175 219 _l
175 167 185 129 205 103 _c
225 77 255 64 296 64 _c
344 64 383 79 411 110 _c
439 141 453 183 453 237 _c
453 547 _l
543 547 _l
543 0 _l
453 0 _l
453 84 _l
431 50 405 26 377 10 _c
348 -5 315 -13 277 -13 _c
214 -13 166 6 134 45 _c
101 83 85 140 85 216 _c
311 560 _m
311 560 _l
_cl}_d
/v{592 0 30 0 562 547 _sc
30 547 _m
125 547 _l
296 88 _l
467 547 _l
562 547 _l
357 0 _l
235 0 _l
30 547 _l
_cl}_d
/w{818 0 42 0 776 547 _sc
42 547 _m
132 547 _l
244 120 _l
356 547 _l
462 547 _l
574 120 _l
686 547 _l
776 547 _l
633 0 _l
527 0 _l
409 448 _l
291 0 _l
185 0 _l
42 547 _l
_cl}_d
/x{592 0 29 0 559 547 _sc
549 547 _m
351 281 _l
559 0 _l
453 0 _l
294 215 _l
135 0 _l
29 0 _l
241 286 _l
47 547 _l
153 547 _l
298 352 _l
443 547 _l
549 547 _l
_cl}_d
/y{592 0 30 -207 562 547 _sc
322 -50 _m
296 -114 271 -157 247 -177 _c
223 -197 191 -207 151 -207 _c
79 -207 _l
79 -132 _l
132 -132 _l
156 -132 175 -126 189 -114 _c
203 -102 218 -75 235 -31 _c
251 9 _l
30 547 _l
125 547 _l
296 119 _l
467 547 _l
562 547 _l
322 -50 _l
_cl}_d
end readonly def

/BuildGlyph
 {exch begin
 CharStrings exch
 2 copy known not{pop /.notdef}if
 true 3 1 roll get exec
 end}_d

/BuildChar {
 1 index /Encoding get exch get
 1 index /BuildGlyph get exec
}_d

FontName currentdict end definefont pop
end
%%EndProlog
mpldict begin
90 252 translate
432 288 0 0 clipbox
gsave
0 0 m
432 0 l
432 288 l
0 288 l
cl
1.000 setgray
fill
grestore
gsave
54 36 m
388.8 36 l
388.8 253.44 l
54 253.44 l
cl
1.000 setgray
fill
grestore
0.800 setlinewidth
1 setlinejoin
0 setlinecap
[] 0 setdash
0.000 setgray
gsave
/o {
gsave
newpath
translate
0.8 setlinewidth
1 setlinejoin
0 setlinecap
0 0 m
0 -3.5 l

gsave
0.000 setgray
fill
grestore
stroke
grestore
} bind def
131.465 36 o
grestore
gsave
119.965426 20.078125 translate
0.000000 rotate
/DejaVuSans findfont
10.0 scalefont
setfont
0.000000 0.976562 moveto
/one glyphshow

6.362305 0.976562 moveto
/zero glyphshow

/DejaVuSans findfont
7.0 scalefont
setfont
12.820312 4.804688 moveto
/one glyphshow

17.273926 4.804688 moveto
/zero glyphshow


grestore
gsave
/o {
gsave
newpath
translate
0.8 setlinewidth
1 setlinejoin
0 setlinecap
0 0 m
0 -3.5 l

gsave
0.000 setgray
fill
grestore
stroke
grestore
} bind def
388.8 36 o
grestore
gsave
377.300000 21.078125 translate
0.000000 rotate
/DejaVuSans findfont
10.0 scalefont
setfont
0.000000 0.064063 moveto
/one glyphshow

6.362305 0.064063 moveto
/zero glyphshow

/DejaVuSans findfont
7.0 scalefont
setfont
12.820312 3.892188 moveto
/one glyphshow

17.273926 3.892188 moveto
/one glyphshow


grestore
0.600 setlinewidth
gsave
/o {
gsave
newpath
translate
0.6 setlinewidth
1 setlinejoin
0 setlinecap
0 0 m
0 -2 l

gsave
0.000 setgray
fill
grestore
stroke
grestore
} bind def
54 36 o
grestore
gsave
/o {
gsave
newpath
translate
0.6 setlinewidth
1 setlinejoin
0 setlinecap
0 0 m
0 -2 l

gsave
0.000 setgray
fill
grestore
stroke
grestore
} bind def
74.3761 36 o
grestore
gsave
/o {
gsave
newpath
translate
0.6 setlinewidth
1 setlinejoin
0 setlinecap
0 0 m
0 -2 l

gsave
0.000 setgray
fill
grestore
stroke
grestore
} bind def
91.6038 36 o
grestore
gsave
/o {
gsave
newpath
translate
0.6 setlinewidth
1 setlinejoin
0 setlinecap
0 0 m
0 -2 l

gsave
0.000 setgray
fill
grestore
stroke
grestore
} bind def
106.527 36 o
grestore
gsave
/o {
gsave
newpath
translate
0.6 setlinewidth
1 setlinejoin
0 setlinecap
0 0 m
0 -2 l

gsave
0.000 setgray
fill
grestore
stroke
grestore
} bind def
119.69 36 o
grestore
gsave
/o {
gsave
newpath
translate
0.6 setlinewidth
1 setlinejoin
0 setlinecap
0 0 m
0 -2 l

gsave
0.000 setgray
fill
grestore
stroke
grestore
} bind def
208.931 36 o
grestore
gsave
/o {
gsave
newpath
translate
0.6 setlinewidth
1 setlinejoin
0 setlinecap
0 0 m
0 -2 l

gsave
0.000 setgray
fill
grestore
stroke
grestore
} bind def
254.245 36 o
grestore
gsave
/o {
gsave
newpath
translate
0.6 setlinewidth
1 setlinejoin
0 setlinecap
0 0 m
0 -2 l

gsave
0.000 setgray
fill
grestore
stroke
grestore
} bind def
286.396 36 o
grestore
gsave
/o {
gsave
newpath
translate
0.6 setlinewidth
1 setlinejoin
0 setlinecap
0 0 m
0 -2 l

gsave
0.000 setgray
fill
grestore
stroke
grestore
} bind def
311.335 36 o
grestore
gsave
/o {
gsave
newpath
translate
0.6 setlinewidth
1 setlinejoin
0 setlinecap
0 0 m
0 -2 l

gsave
0.000 setgray
fill
grestore
stroke
grestore
} bind def
331.711 36 o
grestore
gsave
/o {
gsave
newpath
translate
0.6 setlinewidth
1 setlinejoin
0 setlinecap
0 0 m
0 -2 l

gsave
0.000 setgray
fill
grestore
stroke
grestore
} bind def
348.938 36 o
grestore
gsave
/o {
gsave
newpath
translate
0.6 setlinewidth
1 setlinejoin
0 setlinecap
0 0 m
0 -2 l

gsave
0.000 setgray
fill
grestore
stroke
grestore
} bind def
363.862 36 o
grestore
gsave
/o {
gsave
newpath
translate
0.6 setlinewidth
1 setlinejoin
0 setlinecap
0 0 m
0 -2 l

gsave
0.000 setgray
fill
grestore
stroke
grestore
} bind def
377.025 36 o
grestore
gsave
171.400000 4.000000 translate
0.000000 rotate
/DejaVuSans findfont
10.0 scalefont
setfont
0.000000 0.976562 moveto
/L glyphshow

5.571289 0.976562 moveto
/o glyphshow

11.689453 0.976562 moveto
/g glyphshow

18.037109 0.976562 moveto
/space glyphshow

21.215820 0.976562 moveto
/D glyphshow

28.916016 0.976562 moveto
/e glyphshow

35.068359 0.976562 moveto
/n glyphshow

41.406250 0.976562 moveto
/s glyphshow

46.616211 0.976562 moveto
/i glyphshow

49.394531 0.976562 moveto
/t glyphshow

53.315430 0.976562 moveto
/y glyphshow

59.233398 0.976562 moveto
/space glyphshow

62.412109 0.976562 moveto
/parenleft glyphshow

66.313477 0.976562 moveto
/g glyphshow

72.661133 0.976562 moveto
/slash glyphshow

76.030273 0.976562 moveto
/c glyphshow

81.528320 0.976562 moveto
/m glyphshow

/DejaVuSans findfont
7.0 scalefont
setfont
91.365234 4.804688 moveto
/three glyphshow

/DejaVuSans findfont
10.0 scalefont
setfont
96.092285 0.976562 moveto
/parenright glyphshow


grestore
0.800 setlinewidth
gsave
/o {
gsave
newpath
translate
0.8 setlinewidth
1 setlinejoin
0 setlinecap
0 0 m
-3.5 0 l

gsave
0.000 setgray
fill
grestore
stroke
grestore
} bind def
54 36 o
grestore
gsave
24.000000 31.539062 translate
0.000000 rotate
/DejaVuSans findfont
10.0 scalefont
setfont
0.000000 0.976562 moveto
/one glyphshow

6.362305 0.976562 moveto
/zero glyphshow

/DejaVuSans findfont
7.0 scalefont
setfont
12.820312 4.804688 moveto
/one glyphshow

17.273926 4.804688 moveto
/zero glyphshow


grestore
gsave
/o {
gsave
newpath
translate
0.8 setlinewidth
1 setlinejoin
0 setlinecap
0 0 m
-3.5 0 l

gsave
0.000 setgray
fill
grestore
stroke
grestore
} bind def
54 67.0629 o
grestore
gsave
24.000000 63.101920 translate
0.000000 rotate
/DejaVuSans findfont
10.0 scalefont
setfont
0.000000 0.064063 moveto
/one glyphshow

6.362305 0.064063 moveto
/zero glyphshow

/DejaVuSans findfont
7.0 scalefont
setfont
12.820312 3.892188 moveto
/one glyphshow

17.273926 3.892188 moveto
/four glyphshow


grestore
gsave
/o {
gsave
newpath
translate
0.8 setlinewidth
1 setlinejoin
0 setlinecap
0 0 m
-3.5 0 l

gsave
0.000 setgray
fill
grestore
stroke
grestore
} bind def
54 98.1257 o
grestore
gsave
24.000000 93.664777 translate
0.000000 rotate
/DejaVuSans findfont
10.0 scalefont
setfont
0.000000 0.976562 moveto
/one glyphshow

6.362305 0.976562 moveto
/zero glyphshow

/DejaVuSans findfont
7.0 scalefont
setfont
12.820312 4.804688 moveto
/one glyphshow

17.273926 4.804688 moveto
/eight glyphshow


grestore
gsave
/o {
gsave
newpath
translate
0.8 setlinewidth
1 setlinejoin
0 setlinecap
0 0 m
-3.5 0 l

gsave
0.000 setgray
fill
grestore
stroke
grestore
} bind def
54 129.189 o
grestore
gsave
24.000000 124.727634 translate
0.000000 rotate
/DejaVuSans findfont
10.0 scalefont
setfont
0.000000 0.976562 moveto
/one glyphshow

6.362305 0.976562 moveto
/zero glyphshow

/DejaVuSans findfont
7.0 scalefont
setfont
12.820312 4.804688 moveto
/two glyphshow

17.273926 4.804688 moveto
/two glyphshow


grestore
gsave
/o {
gsave
newpath
translate
0.8 setlinewidth
1 setlinejoin
0 setlinecap
0 0 m
-3.5 0 l

gsave
0.000 setgray
fill
grestore
stroke
grestore
} bind def
54 160.251 o
grestore
gsave
24.000000 155.790491 translate
0.000000 rotate
/DejaVuSans findfont
10.0 scalefont
setfont
0.000000 0.976562 moveto
/one glyphshow

6.362305 0.976562 moveto
/zero glyphshow

/DejaVuSans findfont
7.0 scalefont
setfont
12.820312 4.804688 moveto
/two glyphshow

17.273926 4.804688 moveto
/six glyphshow


grestore
gsave
/o {
gsave
newpath
translate
0.8 setlinewidth
1 setlinejoin
0 setlinecap
0 0 m
-3.5 0 l

gsave
0.000 setgray
fill
grestore
stroke
grestore
} bind def
54 191.314 o
grestore
gsave
24.000000 186.853348 translate
0.000000 rotate
/DejaVuSans findfont
10.0 scalefont
setfont
0.000000 0.976562 moveto
/one glyphshow

6.362305 0.976562 moveto
/zero glyphshow

/DejaVuSans findfont
7.0 scalefont
setfont
12.820312 4.804688 moveto
/three glyphshow

17.273926 4.804688 moveto
/zero glyphshow


grestore
gsave
/o {
gsave
newpath
translate
0.8 setlinewidth
1 setlinejoin
0 setlinecap
0 0 m
-3.5 0 l

gsave
0.000 setgray
fill
grestore
stroke
grestore
} bind def
54 222.377 o
grestore
gsave
24.000000 217.916205 translate
0.000000 rotate
/DejaVuSans findfont
10.0 scalefont
setfont
0.000000 0.976562 moveto
/one glyphshow

6.362305 0.976562 moveto
/zero glyphshow

/DejaVuSans findfont
7.0 scalefont
setfont
12.820312 4.804688 moveto
/three glyphshow

17.273926 4.804688 moveto
/four glyphshow


grestore
gsave
/o {
gsave
newpath
translate
0.8 setlinewidth
1 setlinejoin
0 setlinecap
0 0 m
-3.5 0 l

gsave
0.000 setgray
fill
grestore
stroke
grestore
} bind def
54 253.44 o
grestore
gsave
24.000000 248.979062 translate
0.000000 rotate
/DejaVuSans findfont
10.0 scalefont
setfont
0.000000 0.976562 moveto
/one glyphshow

6.362305 0.976562 moveto
/zero glyphshow

/DejaVuSans findfont
7.0 scalefont
setfont
12.820312 4.804688 moveto
/three glyphshow

17.273926 4.804688 moveto
/eight glyphshow


grestore
gsave
17.000000 69.720000 translate
90.000000 rotate
/DejaVuSans findfont
10.0 scalefont
setfont
0.000000 0.976562 moveto
/L glyphshow

5.571289 0.976562 moveto
/o glyphshow

11.689453 0.976562 moveto
/g glyphshow

18.037109 0.976562 moveto
/space glyphshow

21.215820 0.976562 moveto
/R glyphshow

28.164062 0.976562 moveto
/x glyphshow

34.082031 0.976562 moveto
/n glyphshow

40.419922 0.976562 moveto
/space glyphshow

43.598633 0.976562 moveto
/R glyphshow

50.546875 0.976562 moveto
/a glyphshow

56.674805 0.976562 moveto
/t glyphshow

60.595703 0.976562 moveto
/e glyphshow

66.748047 0.976562 moveto
/space glyphshow

69.926758 0.976562 moveto
/parenleft glyphshow

73.828125 0.976562 moveto
/c glyphshow

79.326172 0.976562 moveto
/o glyphshow

85.444336 0.976562 moveto
/u glyphshow

91.782227 0.976562 moveto
/n glyphshow

98.120117 0.976562 moveto
/t glyphshow

102.041016 0.976562 moveto
/slash glyphshow

105.410156 0.976562 moveto
/c glyphshow

110.908203 0.976562 moveto
/m glyphshow

/DejaVuSans findfont
7.0 scalefont
setfont
120.745117 4.804688 moveto
/three glyphshow

/DejaVuSans findfont
10.0 scalefont
setfont
125.472168 0.976562 moveto
/slash glyphshow

128.841309 0.976562 moveto
/s glyphshow

134.051270 0.976562 moveto
/e glyphshow

140.203613 0.976562 moveto
/c glyphshow

145.701660 0.976562 moveto
/parenright glyphshow


grestore
1.500 setlinewidth
[5.55 2.4] 0 setdash
gsave
334.8 217.4 54 36 clipbox
46.372502 -1 m
53.102333 4.384639 l
73.440845 20.146773 l
90.641733 33.13059 l
105.544934 44.129719 l
118.692587 53.641027 l
130.455041 62.003294 l
141.096558 69.452407 l
150.812316 76.156165 l
159.750578 82.244646 l
168.026611 87.813896 l
175.731813 92.940835 l
182.939872 97.689052 l
189.71107 102.101903 l
196.09535 106.230573 l
202.134549 110.096297 l
207.864066 113.738951 l
213.314119 117.175278 l
218.510706 120.426292 l
223.47636 123.509782 l
228.230735 126.444401 l
232.791079 129.241115 l
237.17261 131.910703 l
241.388824 134.466348 l
245.451742 136.911695 l
249.372122 139.259889 l
253.159628 141.518013 l
256.822972 143.687573 l
260.370037 145.779651 l
263.807978 147.797216 l
267.143309 149.747189 l
270.381978 151.62892 l
273.529431 153.452926 l
276.590665 155.218534 l
279.570279 156.926666 l
282.472511 158.586108 l
285.30128 160.20096 l
288.060214 161.762761 l
290.752676 163.283489 l
293.381796 164.763967 l
295.950484 166.205217 l
298.461458 167.609391 l
300.917253 168.979337 l
303.320243 170.314522 l
305.67265 171.615028 l
307.976561 172.887443 l
310.233934 174.129685 l
312.446613 175.34142 l
314.616333 176.527414 l
316.744731 177.68801 l
318.83335 178.823508 l
320.883651 179.934721 l
322.897015 181.023142 l
324.874748 182.090326 l
326.81809 183.137645 l
328.728217 184.159286 l
330.606244 185.164218 l
332.453234 186.154223 l
334.270195 187.116666 l
336.058088 188.068519 l
337.817828 188.999416 l
339.550289 189.913636 l
341.256303 190.818719 l
342.936666 191.699943 l
344.592137 192.567456 l
346.223443 193.421484 l
347.83128 194.262226 l
349.416314 195.089821 l
350.979181 195.904279 l
352.520494 196.705534 l
354.040839 197.493859 l
355.540779 198.270022 l
357.020854 199.034829 l
358.481584 199.788942 l
359.923467 200.532939 l
361.346984 201.267371 l
362.752598 201.992794 l
364.140752 202.699816 l
365.511875 203.404424 l
366.86638 204.103207 l
368.204665 204.789636 l
369.527114 205.477993 l
370.834097 206.140981 l
372.125972 206.785777 l
373.403084 207.430422 l
374.665767 208.060189 l
375.914343 208.687679 l
377.149123 209.301914 l
378.37041 209.914069 l
379.578495 210.512385 l
380.773661 211.11119 l
381.95618 211.693794 l
383.126318 212.274357 l
384.284332 212.84837 l
385.430469 213.411748 l
386.564972 213.973853 l
387.688073 214.526583 l
388.8 215.070637 l
stroke
grestore
[9.6 2.4 1.5 2.4] 0 setdash
0.000 0.500 0.000 setrgbcolor
gsave
334.8 217.4 54 36 clipbox
5.973724 -1 m
28.220352 16.502046 l
53.102333 35.308521 l
73.440845 50.199786 l
90.641733 62.467421 l
105.544934 72.860718 l
118.692587 81.848623 l
130.455041 89.751251 l
141.096558 96.791418 l
150.812316 103.127431 l
159.750578 108.882269 l
168.026611 114.146535 l
175.731813 118.992892 l
182.939872 123.481531 l
189.71107 127.653066 l
196.09535 131.55643 l
202.134549 135.210991 l
207.864066 138.655061 l
213.314119 141.904059 l
218.510706 144.977868 l
223.47636 147.893306 l
228.230735 150.668185 l
232.791079 153.312739 l
237.17261 155.837105 l
241.388824 158.253901 l
245.451742 160.566269 l
249.372122 162.786913 l
253.159628 164.922515 l
256.822972 166.974226 l
260.370037 168.952808 l
263.807978 170.860939 l
267.143309 172.70528 l
270.381978 174.484942 l
273.529431 176.210225 l
276.590665 177.880257 l
279.570279 179.495781 l
282.472511 181.065413 l
285.30128 182.593104 l
288.060214 184.070247 l
290.752676 185.508693 l
293.381796 186.909142 l
295.950484 188.272505 l
298.461458 189.600831 l
300.917253 190.896869 l
303.320243 192.159997 l
305.67265 193.390212 l
307.976561 194.594025 l
310.233934 195.769277 l
312.446613 196.915569 l
314.616333 198.037598 l
316.744731 199.13565 l
318.83335 200.209964 l
320.883651 201.261301 l
322.897015 202.291102 l
324.874748 203.300876 l
326.81809 204.291947 l
328.728217 205.258461 l
330.606244 206.209344 l
332.453234 207.146341 l
334.270195 208.056781 l
336.058088 208.957599 l
337.817828 209.838398 l
339.550289 210.703424 l
341.256303 211.560189 l
342.936666 212.393942 l
344.592137 213.214802 l
346.223443 214.022971 l
347.83128 214.818624 l
349.416314 215.601873 l
350.979181 216.37271 l
352.520494 217.131043 l
354.040839 217.877127 l
355.540779 218.611711 l
357.020854 219.335579 l
358.481584 220.049378 l
359.923467 220.753666 l
361.346984 221.448979 l
362.752598 222.135857 l
364.140752 222.804892 l
365.511875 223.472055 l
366.86638 224.133922 l
368.204665 224.783951 l
369.527114 225.43641 l
370.834097 226.063989 l
372.125972 226.673853 l
373.403084 227.284031 l
374.665767 227.879785 l
375.914343 228.473706 l
377.149123 229.054804 l
378.37041 229.634243 l
379.578495 230.200256 l
380.773661 230.767161 l
381.95618 231.318258 l
383.126318 231.867698 l
384.284332 232.410964 l
385.430469 232.943963 l
386.564972 233.476049 l
387.688073 233.999112 l
388.8 234.513842 l
stroke
grestore
2 setlinecap
[] 0 setdash
1.000 0.000 0.000 setrgbcolor
gsave
334.8 217.4 54 36 clipbox
7.081246 -1 m
28.220352 15.665368 l
53.102333 34.510919 l
73.440845 49.433066 l
90.641733 61.726098 l
105.544934 72.140878 l
118.692587 81.147344 l
130.455041 89.066271 l
141.096558 96.120939 l
150.812316 102.469993 l
159.750578 108.236662 l
168.026611 113.511744 l
175.731813 118.36805 l
182.939872 122.865894 l
189.71107 127.045986 l
196.09535 130.95734 l
202.134549 134.619389 l
207.864066 138.070501 l
213.314119 141.326142 l
218.510706 144.406234 l
223.47636 147.327632 l
228.230735 150.108176 l
232.791079 152.758125 l
237.17261 155.287641 l
241.388824 157.70936 l
245.451742 160.026445 l
249.372122 162.251611 l
253.159628 164.391558 l
256.822972 166.447448 l
260.370037 168.430055 l
263.807978 170.342066 l
267.143309 172.190154 l
270.381978 173.973435 l
273.529431 175.702219 l
276.590665 177.37564 l
279.570279 178.994448 l
282.472511 180.567265 l
285.30128 182.098046 l
288.060214 183.578191 l
290.752676 185.019555 l
293.381796 186.422842 l
295.950484 187.788968 l
298.461458 189.119982 l
300.917253 190.418641 l
303.320243 191.684324 l
305.67265 192.917032 l
307.976561 194.123278 l
310.233934 195.300906 l
312.446613 196.449518 l
314.616333 197.573816 l
316.744731 198.674085 l
318.83335 199.750569 l
320.883651 200.804029 l
322.897015 201.835909 l
324.874748 202.847719 l
326.81809 203.840784 l
328.728217 204.809253 l
330.606244 205.762052 l
332.453234 206.70093 l
334.270195 207.613213 l
336.058088 208.515841 l
337.817828 209.398417 l
339.550289 210.265187 l
341.256303 211.123666 l
342.936666 211.959102 l
344.592137 212.781616 l
346.223443 213.591412 l
347.83128 214.388663 l
349.416314 215.173486 l
350.979181 215.945869 l
352.520494 216.705724 l
354.040839 217.453306 l
355.540779 218.189364 l
357.020854 218.914685 l
358.481584 219.629912 l
359.923467 220.335609 l
361.346984 221.032309 l
362.752598 221.720554 l
364.140752 222.390936 l
365.511875 223.059427 l
366.86638 223.722603 l
368.204665 224.373923 l
369.527114 225.027654 l
370.834097 225.656489 l
372.125972 226.267592 l
373.403084 226.878992 l
374.665767 227.475953 l
375.914343 228.071064 l
377.149123 228.653337 l
378.37041 229.233936 l
379.578495 229.801094 l
380.773661 230.369131 l
381.95618 230.921345 l
383.126318 231.471889 l
384.284332 232.016245 l
385.430469 232.550322 l
386.564972 233.083472 l
387.688073 233.607586 l
388.8 234.123356 l
stroke
grestore
0.800 setlinewidth
0 setlinejoin
[] 0 setdash
0.000 setgray
gsave
54 36 m
54 253.44 l
stroke
grestore
gsave
388.8 36 m
388.8 253.44 l
stroke
grestore
gsave
54 36 m
388.8 36 l
stroke
grestore
gsave
54 253.44 m
388.8 253.44 l
stroke
grestore
/DejaVuSans findfont
12.000 scalefont
setfont
gsave
129.462500 259.440000 translate
0.000000 rotate
0.000000 0.000000 m /f glyphshow
4.224609 0.000000 m /c glyphshow
10.822266 0.000000 m /c glyphshow
17.419922 0.000000 m /space glyphshow
21.234375 0.000000 m /R glyphshow
29.572266 0.000000 m /M glyphshow
39.925781 0.000000 m /F glyphshow
46.828125 0.000000 m /space glyphshow
50.642578 0.000000 m /hyphen glyphshow
54.972656 0.000000 m /space glyphshow
58.787109 0.000000 m /R glyphshow
67.125000 0.000000 m /x glyphshow
74.226562 0.000000 m /n glyphshow
81.832031 0.000000 m /space glyphshow
85.646484 0.000000 m /R glyphshow
93.984375 0.000000 m /a glyphshow
101.337891 0.000000 m /t glyphshow
106.042969 0.000000 m /e glyphshow
113.425781 0.000000 m /space glyphshow
117.240234 0.000000 m /v glyphshow
124.341797 0.000000 m /s glyphshow
130.593750 0.000000 m /period glyphshow
134.408203 0.000000 m /space glyphshow
138.222656 0.000000 m /D glyphshow
147.462891 0.000000 m /e glyphshow
154.845703 0.000000 m /n glyphshow
162.451172 0.000000 m /s glyphshow
168.703125 0.000000 m /i glyphshow
172.037109 0.000000 m /t glyphshow
176.742188 0.000000 m /y glyphshow
grestore
1.000 setlinewidth
0 setlinecap
0.800 setgray
gsave
61 201.424375 m
173.65625 201.424375 l
174.989583 201.424375 175.65625 202.091042 175.65625 203.424375 c
175.65625 246.44 l
175.65625 247.773333 174.989583 248.44 173.65625 248.44 c
61 248.44 l
59.666667 248.44 59 247.773333 59 246.44 c
59 203.424375 l
59 202.091042 59.666667 201.424375 61 201.424375 c
cl
gsave
1.000 setgray
fill
grestore
stroke
grestore
1.500 setlinewidth
1 setlinejoin
[5.55 2.4] 0 setdash
0.000 setgray
gsave
63 240.34625 m
83 240.34625 l
stroke
grestore
/DejaVuSans findfont
10.000 scalefont
setfont
gsave
91.000000 236.846250 translate
0.000000 rotate
0.000000 0.000000 m /R glyphshow
6.948242 0.000000 m /M glyphshow
15.576172 0.000000 m /F glyphshow
21.328125 0.000000 m /hyphen glyphshow
24.936523 0.000000 m /f glyphshow
28.457031 0.000000 m /c glyphshow
33.955078 0.000000 m /c glyphshow
39.453125 0.000000 m /hyphen glyphshow
43.061523 0.000000 m /s glyphshow
48.271484 0.000000 m /t glyphshow
52.192383 0.000000 m /a glyphshow
58.320312 0.000000 m /t glyphshow
62.241211 0.000000 m /i glyphshow
65.019531 0.000000 m /c glyphshow
grestore
[9.6 2.4 1.5 2.4] 0 setdash
0.000 0.500 0.000 setrgbcolor
gsave
63 225.674375 m
83 225.674375 l
stroke
grestore
0.000 setgray
gsave
91.000000 222.174375 translate
0.000000 rotate
0.000000 0.000000 m /R glyphshow
6.948242 0.000000 m /M glyphshow
15.576172 0.000000 m /F glyphshow
21.328125 0.000000 m /hyphen glyphshow
24.936523 0.000000 m /f glyphshow
28.457031 0.000000 m /c glyphshow
33.955078 0.000000 m /c glyphshow
39.453125 0.000000 m /hyphen glyphshow
43.061523 0.000000 m /r glyphshow
47.172852 0.000000 m /e glyphshow
53.325195 0.000000 m /l glyphshow
56.103516 0.000000 m /a glyphshow
62.231445 0.000000 m /x glyphshow
68.149414 0.000000 m /e glyphshow
74.301758 0.000000 m /d glyphshow
grestore
2 setlinecap
[] 0 setdash
1.000 0.000 0.000 setrgbcolor
gsave
63 211.0025 m
83 211.0025 l
stroke
grestore
0.000 setgray
gsave
91.000000 207.502500 translate
0.000000 rotate
0.000000 0.000000 m /R glyphshow
6.948242 0.000000 m /M glyphshow
15.576172 0.000000 m /F glyphshow
21.328125 0.000000 m /hyphen glyphshow
24.936523 0.000000 m /f glyphshow
28.457031 0.000000 m /c glyphshow
33.955078 0.000000 m /c glyphshow
39.453125 0.000000 m /hyphen glyphshow
43.061523 0.000000 m /w glyphshow
51.240234 0.000000 m /s glyphshow
grestore

end
showpage
