%!PS-Adobe-3.0 EPSF-3.0
%%Title: /media/sf_hellmersjl/bitbucket/hellmers_ms/thesis_doc/Figures/TandMeltTnopycno.eps
%%Creator: matplotlib version 2.2.2, http://matplotlib.org/
%%CreationDate: Thu Dec  5 16:36:56 2019
%%Orientation: portrait
%%BoundingBox: 90 252 522 540
%%EndComments
%%BeginProlog
/mpldict 8 dict def
mpldict begin
/m { moveto } bind def
/l { lineto } bind def
/r { rlineto } bind def
/c { curveto } bind def
/cl { closepath } bind def
/box {
m
1 index 0 r
0 exch r
neg 0 r
cl
} bind def
/clipbox {
box
clip
newpath
} bind def
%!PS-Adobe-3.0 Resource-Font
%%Title: DejaVu Sans
%%Copyright: Copyright (c) 2003 by Bitstream, Inc. All Rights Reserved. Copyright (c) 2006 by Tavmjong Bah. All Rights Reserved. DejaVu changes are in public domain 
%%Creator: Converted from TrueType to type 3 by PPR
25 dict begin
/_d{bind def}bind def
/_m{moveto}_d
/_l{lineto}_d
/_cl{closepath eofill}_d
/_c{curveto}_d
/_sc{7 -1 roll{setcachedevice}{pop pop pop pop pop pop}ifelse}_d
/_e{exec}_d
/FontName /DejaVuSans def
/PaintType 0 def
/FontMatrix[.001 0 0 .001 0 0]def
/FontBBox[-1021 -463 1793 1232]def
/FontType 3 def
/Encoding [ /space /parenleft /parenright /zero /one /two /four /five /six /seven /eight /nine /equal /G /K /L /R /T /a /d /g /i /k /l /m /o /s /u ] def
/FontInfo 10 dict dup begin
/FamilyName (DejaVu Sans) def
/FullName (DejaVu Sans) def
/Notice (Copyright (c) 2003 by Bitstream, Inc. All Rights Reserved. Copyright (c) 2006 by Tavmjong Bah. All Rights Reserved. DejaVu changes are in public domain ) def
/Weight (Book) def
/Version (Version 2.35) def
/ItalicAngle 0.0 def
/isFixedPitch false def
/UnderlinePosition -130 def
/UnderlineThickness 90 def
end readonly def
/CharStrings 29 dict dup begin
/.notdef 0 def
/space{318 0 0 0 0 0 _sc
}_d
/parenleft{390 0 86 -131 310 759 _sc
310 759 _m
266 683 234 609 213 536 _c
191 463 181 389 181 314 _c
181 238 191 164 213 91 _c
234 17 266 -56 310 -131 _c
232 -131 _l
183 -54 146 20 122 94 _c
98 168 86 241 86 314 _c
86 386 98 459 122 533 _c
146 607 182 682 232 759 _c
310 759 _l
_cl}_d
/parenright{390 0 80 -131 304 759 _sc
80 759 _m
158 759 _l
206 682 243 607 267 533 _c
291 459 304 386 304 314 _c
304 241 291 168 267 94 _c
243 20 206 -54 158 -131 _c
80 -131 _l
123 -56 155 17 177 91 _c
198 164 209 238 209 314 _c
209 389 198 463 177 536 _c
155 609 123 683 80 759 _c
_cl}_d
/zero{636 0 66 -13 570 742 _sc
318 664 _m
267 664 229 639 203 589 _c
177 539 165 464 165 364 _c
165 264 177 189 203 139 _c
229 89 267 64 318 64 _c
369 64 407 89 433 139 _c
458 189 471 264 471 364 _c
471 464 458 539 433 589 _c
407 639 369 664 318 664 _c
318 742 _m
399 742 461 709 505 645 _c
548 580 570 486 570 364 _c
570 241 548 147 505 83 _c
461 19 399 -13 318 -13 _c
236 -13 173 19 130 83 _c
87 147 66 241 66 364 _c
66 486 87 580 130 645 _c
173 709 236 742 318 742 _c
_cl}_d
/one{636 0 110 0 544 729 _sc
124 83 _m
285 83 _l
285 639 _l
110 604 _l
110 694 _l
284 729 _l
383 729 _l
383 83 _l
544 83 _l
544 0 _l
124 0 _l
124 83 _l
_cl}_d
/two{{636 0 73 0 536 742 _sc
192 83 _m
536 83 _l
536 0 _l
73 0 _l
73 83 _l
110 121 161 173 226 239 _c
290 304 331 346 348 365 _c
380 400 402 430 414 455 _c
426 479 433 504 433 528 _c
433 566 419 598 392 622 _c
365 646 330 659 286 659 _c
255 659 222 653 188 643 _c
154 632 117 616 78 594 _c
78 694 _l
118 710 155 722 189 730 _c
223 738 255 742 284 742 _c
}_e{359 742 419 723 464 685 _c
509 647 532 597 532 534 _c
532 504 526 475 515 449 _c
504 422 484 390 454 354 _c
446 344 420 317 376 272 _c
332 227 271 164 192 83 _c
_cl}_e}_d
/four{636 0 49 0 580 729 _sc
378 643 _m
129 254 _l
378 254 _l
378 643 _l
352 729 _m
476 729 _l
476 254 _l
580 254 _l
580 172 _l
476 172 _l
476 0 _l
378 0 _l
378 172 _l
49 172 _l
49 267 _l
352 729 _l
_cl}_d
/five{{636 0 77 -13 549 729 _sc
108 729 _m
495 729 _l
495 646 _l
198 646 _l
198 467 _l
212 472 227 476 241 478 _c
255 480 270 482 284 482 _c
365 482 429 459 477 415 _c
525 370 549 310 549 234 _c
549 155 524 94 475 51 _c
426 8 357 -13 269 -13 _c
238 -13 207 -10 175 -6 _c
143 -1 111 6 77 17 _c
77 116 _l
106 100 136 88 168 80 _c
199 72 232 69 267 69 _c
}_e{323 69 368 83 401 113 _c
433 143 450 183 450 234 _c
450 284 433 324 401 354 _c
368 384 323 399 267 399 _c
241 399 214 396 188 390 _c
162 384 135 375 108 363 _c
108 729 _l
_cl}_e}_d
/six{{636 0 70 -13 573 742 _sc
330 404 _m
286 404 251 388 225 358 _c
199 328 186 286 186 234 _c
186 181 199 139 225 109 _c
251 79 286 64 330 64 _c
374 64 409 79 435 109 _c
461 139 474 181 474 234 _c
474 286 461 328 435 358 _c
409 388 374 404 330 404 _c
526 713 _m
526 623 _l
501 635 476 644 451 650 _c
425 656 400 659 376 659 _c
310 659 260 637 226 593 _c
}_e{192 549 172 482 168 394 _c
187 422 211 444 240 459 _c
269 474 301 482 336 482 _c
409 482 467 459 509 415 _c
551 371 573 310 573 234 _c
573 159 550 99 506 54 _c
462 9 403 -13 330 -13 _c
246 -13 181 19 137 83 _c
92 147 70 241 70 364 _c
70 479 97 571 152 639 _c
206 707 280 742 372 742 _c
396 742 421 739 447 735 _c
472 730 498 723 526 713 _c
_cl}_e}_d
/seven{636 0 82 0 551 729 _sc
82 729 _m
551 729 _l
551 687 _l
286 0 _l
183 0 _l
432 646 _l
82 646 _l
82 729 _l
_cl}_d
/eight{{636 0 68 -13 568 742 _sc
318 346 _m
271 346 234 333 207 308 _c
180 283 167 249 167 205 _c
167 161 180 126 207 101 _c
234 76 271 64 318 64 _c
364 64 401 76 428 102 _c
455 127 469 161 469 205 _c
469 249 455 283 429 308 _c
402 333 365 346 318 346 _c
219 388 _m
177 398 144 418 120 447 _c
96 476 85 511 85 553 _c
85 611 105 657 147 691 _c
188 725 245 742 318 742 _c
}_e{390 742 447 725 489 691 _c
530 657 551 611 551 553 _c
551 511 539 476 515 447 _c
491 418 459 398 417 388 _c
464 377 501 355 528 323 _c
554 291 568 251 568 205 _c
568 134 546 80 503 43 _c
459 5 398 -13 318 -13 _c
237 -13 175 5 132 43 _c
89 80 68 134 68 205 _c
68 251 81 291 108 323 _c
134 355 171 377 219 388 _c
183 544 _m
183 506 194 476 218 455 _c
}_e{242 434 275 424 318 424 _c
360 424 393 434 417 455 _c
441 476 453 506 453 544 _c
453 582 441 611 417 632 _c
393 653 360 664 318 664 _c
275 664 242 653 218 632 _c
194 611 183 582 183 544 _c
_cl}_e}_d
/nine{{636 0 63 -13 566 742 _sc
110 15 _m
110 105 _l
134 93 159 84 185 78 _c
210 72 235 69 260 69 _c
324 69 374 90 408 134 _c
442 178 462 244 468 334 _c
448 306 424 284 396 269 _c
367 254 335 247 300 247 _c
226 247 168 269 126 313 _c
84 357 63 417 63 494 _c
63 568 85 628 129 674 _c
173 719 232 742 306 742 _c
390 742 455 709 499 645 _c
543 580 566 486 566 364 _c
}_e{566 248 538 157 484 89 _c
429 21 356 -13 264 -13 _c
239 -13 214 -10 189 -6 _c
163 -2 137 5 110 15 _c
306 324 _m
350 324 385 339 411 369 _c
437 399 450 441 450 494 _c
450 546 437 588 411 618 _c
385 648 350 664 306 664 _c
262 664 227 648 201 618 _c
175 588 162 546 162 494 _c
162 441 175 399 201 369 _c
227 339 262 324 306 324 _c
_cl}_e}_d
/equal{838 0 106 172 732 454 _sc
106 454 _m
732 454 _l
732 372 _l
106 372 _l
106 454 _l
106 255 _m
732 255 _l
732 172 _l
106 172 _l
106 255 _l
_cl}_d
/G{{775 0 56 -13 693 742 _sc
595 104 _m
595 300 _l
434 300 _l
434 381 _l
693 381 _l
693 68 _l
655 40 613 20 567 7 _c
521 -6 472 -13 420 -13 _c
306 -13 216 20 152 86 _c
88 152 56 245 56 364 _c
56 482 88 575 152 642 _c
216 708 306 742 420 742 _c
467 742 512 736 555 724 _c
598 712 638 695 674 673 _c
674 568 _l
637 598 598 621 557 637 _c
516 653 473 661 428 661 _c
}_e{338 661 271 636 227 586 _c
182 536 160 462 160 364 _c
160 265 182 191 227 141 _c
271 91 338 67 428 67 _c
462 67 493 70 521 76 _c
549 82 573 91 595 104 _c
_cl}_e}_d
/K{656 0 98 0 677 729 _sc
98 729 _m
197 729 _l
197 421 _l
524 729 _l
651 729 _l
289 389 _l
677 0 _l
547 0 _l
197 351 _l
197 0 _l
98 0 _l
98 729 _l
_cl}_d
/L{557 0 98 0 552 729 _sc
98 729 _m
197 729 _l
197 83 _l
552 83 _l
552 0 _l
98 0 _l
98 729 _l
_cl}_d
/R{{695 0 98 0 666 729 _sc
444 342 _m
465 334 486 319 506 296 _c
526 272 546 240 566 199 _c
666 0 _l
560 0 _l
467 187 _l
443 235 419 268 397 284 _c
374 300 343 308 304 308 _c
197 308 _l
197 0 _l
98 0 _l
98 729 _l
321 729 _l
404 729 466 711 507 677 _c
548 642 569 589 569 519 _c
569 473 558 434 537 404 _c
515 374 484 353 444 342 _c
197 648 _m
197 389 _l
321 389 _l
}_e{368 389 404 400 428 422 _c
452 444 465 476 465 519 _c
465 561 452 593 428 615 _c
404 637 368 648 321 648 _c
197 648 _l
_cl}_e}_d
/T{611 0 -2 0 614 729 _sc
-2 729 _m
614 729 _l
614 646 _l
355 646 _l
355 0 _l
256 0 _l
256 646 _l
-2 646 _l
-2 729 _l
_cl}_d
/a{{613 0 60 -13 522 560 _sc
343 275 _m
270 275 220 266 192 250 _c
164 233 150 205 150 165 _c
150 133 160 107 181 89 _c
202 70 231 61 267 61 _c
317 61 357 78 387 114 _c
417 149 432 196 432 255 _c
432 275 _l
343 275 _l
522 312 _m
522 0 _l
432 0 _l
432 83 _l
411 49 385 25 355 10 _c
325 -5 287 -13 243 -13 _c
187 -13 142 2 109 33 _c
76 64 60 106 60 159 _c
}_e{60 220 80 266 122 298 _c
163 329 224 345 306 345 _c
432 345 _l
432 354 _l
432 395 418 427 391 450 _c
364 472 326 484 277 484 _c
245 484 215 480 185 472 _c
155 464 127 453 100 439 _c
100 522 _l
132 534 164 544 195 550 _c
226 556 256 560 286 560 _c
365 560 424 539 463 498 _c
502 457 522 395 522 312 _c
_cl}_e}_d
/d{{635 0 55 -13 544 760 _sc
454 464 _m
454 760 _l
544 760 _l
544 0 _l
454 0 _l
454 82 _l
435 49 411 25 382 10 _c
353 -5 319 -13 279 -13 _c
213 -13 159 13 117 65 _c
75 117 55 187 55 273 _c
55 359 75 428 117 481 _c
159 533 213 560 279 560 _c
319 560 353 552 382 536 _c
411 520 435 496 454 464 _c
148 273 _m
148 207 161 155 188 117 _c
215 79 253 61 301 61 _c
}_e{348 61 385 79 413 117 _c
440 155 454 207 454 273 _c
454 339 440 390 413 428 _c
385 466 348 485 301 485 _c
253 485 215 466 188 428 _c
161 390 148 339 148 273 _c
_cl}_e}_d
/g{{635 0 55 -207 544 560 _sc
454 280 _m
454 344 440 395 414 431 _c
387 467 349 485 301 485 _c
253 485 215 467 188 431 _c
161 395 148 344 148 280 _c
148 215 161 165 188 129 _c
215 93 253 75 301 75 _c
349 75 387 93 414 129 _c
440 165 454 215 454 280 _c
544 68 _m
544 -24 523 -93 482 -139 _c
440 -184 377 -207 292 -207 _c
260 -207 231 -204 203 -200 _c
175 -195 147 -188 121 -178 _c
}_e{121 -91 _l
147 -105 173 -115 199 -122 _c
225 -129 251 -133 278 -133 _c
336 -133 380 -117 410 -87 _c
439 -56 454 -10 454 52 _c
454 96 _l
435 64 411 40 382 24 _c
353 8 319 0 279 0 _c
211 0 157 25 116 76 _c
75 127 55 195 55 280 _c
55 364 75 432 116 483 _c
157 534 211 560 279 560 _c
319 560 353 552 382 536 _c
411 520 435 496 454 464 _c
454 547 _l
544 547 _l
}_e{544 68 _l
_cl}_e}_d
/i{278 0 94 0 184 760 _sc
94 547 _m
184 547 _l
184 0 _l
94 0 _l
94 547 _l
94 760 _m
184 760 _l
184 646 _l
94 646 _l
94 760 _l
_cl}_d
/k{579 0 91 0 576 760 _sc
91 760 _m
181 760 _l
181 311 _l
449 547 _l
564 547 _l
274 291 _l
576 0 _l
459 0 _l
181 267 _l
181 0 _l
91 0 _l
91 760 _l
_cl}_d
/l{278 0 94 0 184 760 _sc
94 760 _m
184 760 _l
184 0 _l
94 0 _l
94 760 _l
_cl}_d
/m{{974 0 91 0 889 560 _sc
520 442 _m
542 482 569 511 600 531 _c
631 550 668 560 711 560 _c
767 560 811 540 842 500 _c
873 460 889 403 889 330 _c
889 0 _l
799 0 _l
799 327 _l
799 379 789 418 771 444 _c
752 469 724 482 686 482 _c
639 482 602 466 575 435 _c
548 404 535 362 535 309 _c
535 0 _l
445 0 _l
445 327 _l
445 379 435 418 417 444 _c
398 469 369 482 331 482 _c
}_e{285 482 248 466 221 435 _c
194 404 181 362 181 309 _c
181 0 _l
91 0 _l
91 547 _l
181 547 _l
181 462 _l
201 495 226 520 255 536 _c
283 552 317 560 357 560 _c
397 560 430 550 458 530 _c
486 510 506 480 520 442 _c
_cl}_e}_d
/o{612 0 55 -13 557 560 _sc
306 484 _m
258 484 220 465 192 427 _c
164 389 150 338 150 273 _c
150 207 163 156 191 118 _c
219 80 257 62 306 62 _c
354 62 392 80 420 118 _c
448 156 462 207 462 273 _c
462 337 448 389 420 427 _c
392 465 354 484 306 484 _c
306 560 _m
384 560 445 534 490 484 _c
534 433 557 363 557 273 _c
557 183 534 113 490 63 _c
445 12 384 -13 306 -13 _c
227 -13 165 12 121 63 _c
77 113 55 183 55 273 _c
55 363 77 433 121 484 _c
165 534 227 560 306 560 _c
_cl}_d
/s{{521 0 54 -13 472 560 _sc
443 531 _m
443 446 _l
417 458 391 468 364 475 _c
336 481 308 485 279 485 _c
234 485 200 478 178 464 _c
156 450 145 430 145 403 _c
145 382 153 366 169 354 _c
185 342 217 330 265 320 _c
296 313 _l
360 299 405 279 432 255 _c
458 230 472 195 472 151 _c
472 100 452 60 412 31 _c
372 1 316 -13 246 -13 _c
216 -13 186 -10 154 -5 _c
}_e{122 0 89 8 54 20 _c
54 113 _l
87 95 120 82 152 74 _c
184 65 216 61 248 61 _c
290 61 323 68 346 82 _c
368 96 380 117 380 144 _c
380 168 371 187 355 200 _c
339 213 303 226 247 238 _c
216 245 _l
160 257 119 275 95 299 _c
70 323 58 356 58 399 _c
58 450 76 490 112 518 _c
148 546 200 560 268 560 _c
301 560 332 557 362 552 _c
391 547 418 540 443 531 _c
}_e{_cl}_e}_d
/u{634 0 85 -13 543 560 _sc
85 216 _m
85 547 _l
175 547 _l
175 219 _l
175 167 185 129 205 103 _c
225 77 255 64 296 64 _c
344 64 383 79 411 110 _c
439 141 453 183 453 237 _c
453 547 _l
543 547 _l
543 0 _l
453 0 _l
453 84 _l
431 50 405 26 377 10 _c
348 -5 315 -13 277 -13 _c
214 -13 166 6 134 45 _c
101 83 85 140 85 216 _c
311 560 _m
311 560 _l
_cl}_d
end readonly def

/BuildGlyph
 {exch begin
 CharStrings exch
 2 copy known not{pop /.notdef}if
 true 3 1 roll get exec
 end}_d

/BuildChar {
 1 index /Encoding get exch get
 1 index /BuildGlyph get exec
}_d

FontName currentdict end definefont pop
end
%%EndProlog
mpldict begin
90 252 translate
432 288 0 0 clipbox
gsave
0 0 m
432 0 l
432 288 l
0 288 l
cl
1.000 setgray
fill
grestore
gsave
54 36 m
388.8 36 l
388.8 253.44 l
54 253.44 l
cl
1.000 setgray
fill
grestore
0.800 setlinewidth
1 setlinejoin
0 setlinecap
[] 0 setdash
0.000 setgray
gsave
/o {
gsave
newpath
translate
0.8 setlinewidth
1 setlinejoin
0 setlinecap
0 0 m
0 -3.5 l

gsave
0.000 setgray
fill
grestore
stroke
grestore
} bind def
68.8254 36 o
grestore
/DejaVuSans findfont
10.000 scalefont
setfont
gsave
65.645748 21.406250 translate
0.000000 rotate
0.000000 0.000000 m /zero glyphshow
grestore
gsave
/o {
gsave
newpath
translate
0.8 setlinewidth
1 setlinejoin
0 setlinecap
0 0 m
0 -3.5 l

gsave
0.000 setgray
fill
grestore
stroke
grestore
} bind def
109.328 36 o
grestore
gsave
99.788615 21.406250 translate
0.000000 rotate
0.000000 0.000000 m /two glyphshow
6.362305 0.000000 m /zero glyphshow
12.724609 0.000000 m /zero glyphshow
grestore
gsave
/o {
gsave
newpath
translate
0.8 setlinewidth
1 setlinejoin
0 setlinecap
0 0 m
0 -3.5 l

gsave
0.000 setgray
fill
grestore
stroke
grestore
} bind def
149.83 36 o
grestore
gsave
140.290856 21.406250 translate
0.000000 rotate
0.000000 0.000000 m /four glyphshow
6.362305 0.000000 m /zero glyphshow
12.724609 0.000000 m /zero glyphshow
grestore
gsave
/o {
gsave
newpath
translate
0.8 setlinewidth
1 setlinejoin
0 setlinecap
0 0 m
0 -3.5 l

gsave
0.000 setgray
fill
grestore
stroke
grestore
} bind def
190.332 36 o
grestore
gsave
180.793097 21.406250 translate
0.000000 rotate
0.000000 0.000000 m /six glyphshow
6.362305 0.000000 m /zero glyphshow
12.724609 0.000000 m /zero glyphshow
grestore
gsave
/o {
gsave
newpath
translate
0.8 setlinewidth
1 setlinejoin
0 setlinecap
0 0 m
0 -3.5 l

gsave
0.000 setgray
fill
grestore
stroke
grestore
} bind def
230.834 36 o
grestore
gsave
221.295338 21.406250 translate
0.000000 rotate
0.000000 0.000000 m /eight glyphshow
6.362305 0.000000 m /zero glyphshow
12.724609 0.000000 m /zero glyphshow
grestore
gsave
/o {
gsave
newpath
translate
0.8 setlinewidth
1 setlinejoin
0 setlinecap
0 0 m
0 -3.5 l

gsave
0.000 setgray
fill
grestore
stroke
grestore
} bind def
271.337 36 o
grestore
gsave
258.617891 21.406250 translate
0.000000 rotate
0.000000 0.000000 m /one glyphshow
6.362305 0.000000 m /zero glyphshow
12.724609 0.000000 m /zero glyphshow
19.086914 0.000000 m /zero glyphshow
grestore
gsave
/o {
gsave
newpath
translate
0.8 setlinewidth
1 setlinejoin
0 setlinecap
0 0 m
0 -3.5 l

gsave
0.000 setgray
fill
grestore
stroke
grestore
} bind def
311.839 36 o
grestore
gsave
299.120132 21.406250 translate
0.000000 rotate
0.000000 0.000000 m /one glyphshow
6.362305 0.000000 m /two glyphshow
12.724609 0.000000 m /zero glyphshow
19.086914 0.000000 m /zero glyphshow
grestore
gsave
/o {
gsave
newpath
translate
0.8 setlinewidth
1 setlinejoin
0 setlinecap
0 0 m
0 -3.5 l

gsave
0.000 setgray
fill
grestore
stroke
grestore
} bind def
352.341 36 o
grestore
gsave
339.622373 21.406250 translate
0.000000 rotate
0.000000 0.000000 m /one glyphshow
6.362305 0.000000 m /four glyphshow
12.724609 0.000000 m /zero glyphshow
19.086914 0.000000 m /zero glyphshow
grestore
gsave
191.243750 7.734375 translate
0.000000 rotate
0.000000 0.000000 m /R glyphshow
6.948242 0.000000 m /a glyphshow
13.076172 0.000000 m /d glyphshow
19.423828 0.000000 m /i glyphshow
22.202148 0.000000 m /u glyphshow
28.540039 0.000000 m /s glyphshow
33.750000 0.000000 m /space glyphshow
36.928711 0.000000 m /parenleft glyphshow
40.830078 0.000000 m /k glyphshow
46.621094 0.000000 m /m glyphshow
56.362305 0.000000 m /parenright glyphshow
grestore
gsave
/o {
gsave
newpath
translate
0.8 setlinewidth
1 setlinejoin
0 setlinecap
0 0 m
-3.5 0 l

gsave
0.000 setgray
fill
grestore
stroke
grestore
} bind def
54 55.4205 o
grestore
gsave
40.640625 51.623597 translate
0.000000 rotate
0.000000 0.000000 m /four glyphshow
grestore
gsave
/o {
gsave
newpath
translate
0.8 setlinewidth
1 setlinejoin
0 setlinecap
0 0 m
-3.5 0 l

gsave
0.000 setgray
fill
grestore
stroke
grestore
} bind def
54 92.5682 o
grestore
gsave
40.640625 88.771322 translate
0.000000 rotate
0.000000 0.000000 m /five glyphshow
grestore
gsave
/o {
gsave
newpath
translate
0.8 setlinewidth
1 setlinejoin
0 setlinecap
0 0 m
-3.5 0 l

gsave
0.000 setgray
fill
grestore
stroke
grestore
} bind def
54 129.716 o
grestore
gsave
40.640625 125.919047 translate
0.000000 rotate
0.000000 0.000000 m /six glyphshow
grestore
gsave
/o {
gsave
newpath
translate
0.8 setlinewidth
1 setlinejoin
0 setlinecap
0 0 m
-3.5 0 l

gsave
0.000 setgray
fill
grestore
stroke
grestore
} bind def
54 166.864 o
grestore
gsave
40.640625 163.066772 translate
0.000000 rotate
0.000000 0.000000 m /seven glyphshow
grestore
gsave
/o {
gsave
newpath
translate
0.8 setlinewidth
1 setlinejoin
0 setlinecap
0 0 m
-3.5 0 l

gsave
0.000 setgray
fill
grestore
stroke
grestore
} bind def
54 204.011 o
grestore
gsave
40.640625 200.214498 translate
0.000000 rotate
0.000000 0.000000 m /eight glyphshow
grestore
gsave
/o {
gsave
newpath
translate
0.8 setlinewidth
1 setlinejoin
0 setlinecap
0 0 m
-3.5 0 l

gsave
0.000 setgray
fill
grestore
stroke
grestore
} bind def
54 241.159 o
grestore
gsave
40.640625 237.362223 translate
0.000000 rotate
0.000000 0.000000 m /nine glyphshow
grestore
gsave
34.562500 123.665312 translate
90.000000 rotate
0.000000 0.000000 m /l glyphshow
2.778320 0.000000 m /o glyphshow
8.896484 0.000000 m /g glyphshow
15.244141 0.000000 m /space glyphshow
18.422852 0.000000 m /T glyphshow
24.531250 0.000000 m /space glyphshow
27.709961 0.000000 m /parenleft glyphshow
31.611328 0.000000 m /K glyphshow
38.168945 0.000000 m /parenright glyphshow
grestore
1.500 setlinewidth
2 setlinecap
0.122 0.467 0.706 setrgbcolor
gsave
334.8 217.4 54 36 clipbox
373.581818 119.075925 m
373.408175 156.059401 l
373.058155 168.524981 l
372.517055 177.799429 l
371.974724 182.819276 l
371.378932 186.301221 l
370.730459 188.817382 l
370.01729 190.696882 l
369.073023 192.329957 l
368.207594 193.344042 l
366.996393 194.310165 l
365.694211 195.003473 l
364.39575 195.500112 l
362.336106 196.048773 l
359.50595 196.544979 l
355.393435 197.016594 l
342.658942 197.758376 l
329.320321 198.165005 l
304.094536 198.665873 l
191.689618 200.123489 l
191.662595 200.670651 l
191.527501 209.507172 l
170.583092 214.164772 l
160.299866 216.254261 l
146.544799 218.908178 l
134.325308 221.043547 l
123.311946 222.747893 l
113.346033 224.073634 l
99.12836 225.580441 l
80.184866 226.731121 l
70.646112 226.906618 l
69.218182 226.91075 l
69.218182 226.91075 l
stroke
grestore
0 setlinecap
[5.55 2.4] 0 setdash
1.000 0.498 0.055 setrgbcolor
gsave
334.8 217.4 54 36 clipbox
373.581818 45.883636 m
373.405162 74.531486 l
373.064341 92.739433 l
372.599738 103.994493 l
372.105282 110.406347 l
371.521367 115.110184 l
370.826335 118.854683 l
370.239188 121.179086 l
369.919784 122.256217 l
368.97812 124.853562 l
367.889605 127.171001 l
367.436339 127.96707 l
366.946713 128.788039 l
365.53909 130.79668 l
365.031905 131.420293 l
363.302917 133.30748 l
361.313854 135.103667 l
358.919794 136.935096 l
356.372509 138.589265 l
355.721338 138.98646 l
352.528683 140.694952 l
348.511903 142.575946 l
345.401505 143.856849 l
344.533842 144.206918 l
339.459953 146.049031 l
338.11199 146.47852 l
337.302986 146.761577 l
336.227727 147.106305 l
335.088143 147.475753 l
330.296361 148.903463 l
322.451892 151.029795 l
312.844478 153.381736 l
302.020911 155.763006 l
287.992373 158.612991 l
270.903769 161.798937 l
249.127071 165.570932 l
223.590218 169.723829 l
220.484767 170.183996 l
195.274818 173.98259 l
173.648175 177.046047 l
170.109753 177.523592 l
155.754123 179.357661 l
139.649296 181.247919 l
133.520906 181.899919 l
120.021517 183.192266 l
92.989008 184.994429 l
74.598218 185.502347 l
69.218182 185.52958 l
69.218182 185.52958 l
stroke
grestore
[1.5 2.475] 0 setdash
0.173 0.627 0.173 setrgbcolor
gsave
334.8 217.4 54 36 clipbox
373.581818 59.180102 m
373.405162 87.827952 l
373.064341 106.035898 l
372.599738 117.290959 l
372.105282 123.702812 l
371.521367 128.406649 l
370.826335 132.151149 l
370.239188 134.475551 l
369.919784 135.552682 l
368.97812 138.150027 l
367.889605 140.467466 l
367.436339 141.263535 l
366.946713 142.084504 l
365.53909 144.093145 l
365.031905 144.716758 l
363.302917 146.603945 l
361.313854 148.400132 l
358.919794 150.231562 l
356.372509 151.885731 l
355.721338 152.282925 l
352.528683 153.991417 l
348.511903 155.872411 l
345.401505 157.153314 l
344.533842 157.503383 l
339.459953 159.345496 l
338.11199 159.774985 l
337.302986 160.058042 l
336.227727 160.402771 l
335.088143 160.772218 l
330.296361 162.199928 l
322.451892 164.326261 l
312.844478 166.678202 l
302.020911 169.059471 l
287.992373 171.909457 l
270.903769 175.095403 l
249.127071 178.867398 l
223.590218 183.020294 l
220.484767 183.480461 l
195.274818 187.279055 l
173.648175 190.342512 l
170.109753 190.820058 l
155.754123 192.654126 l
139.649296 194.544385 l
133.520906 195.196385 l
120.021517 196.488732 l
92.989008 198.290894 l
74.598218 198.798813 l
69.218182 198.826045 l
69.218182 198.826045 l
stroke
grestore
[9.6 2.4 1.5 2.4] 0 setdash
0.839 0.153 0.157 setrgbcolor
gsave
334.8 217.4 54 36 clipbox
373.581818 103.91042 m
373.405162 132.55827 l
373.064341 150.766216 l
372.599738 162.021277 l
372.105282 168.43313 l
371.521367 173.136968 l
370.826335 176.881467 l
370.239188 179.205869 l
369.919784 180.283001 l
368.97812 182.880345 l
367.889605 185.197784 l
367.436339 185.993853 l
366.946713 186.814822 l
365.53909 188.823463 l
365.031905 189.447077 l
363.302917 191.334263 l
361.313854 193.130451 l
358.919794 194.96188 l
356.372509 196.616049 l
355.721338 197.013243 l
352.528683 198.721736 l
348.511903 200.60273 l
345.401505 201.883632 l
344.533842 202.233701 l
339.459953 204.075814 l
338.11199 204.505303 l
337.302986 204.788361 l
336.227727 205.133089 l
335.088143 205.502536 l
330.296361 206.930246 l
322.451892 209.056579 l
312.844478 211.40852 l
302.020911 213.789789 l
287.992373 216.639775 l
270.903769 219.825721 l
249.127071 223.597716 l
223.590218 227.750612 l
220.484767 228.210779 l
195.274818 232.009373 l
173.648175 235.072831 l
170.109753 235.550376 l
155.754123 237.384444 l
139.649296 239.274703 l
133.520906 239.926703 l
120.021517 241.21905 l
92.989008 243.021212 l
74.598218 243.529131 l
69.218182 243.556364 l
69.218182 243.556364 l
stroke
grestore
0.800 setlinewidth
0 setlinejoin
2 setlinecap
[] 0 setdash
0.000 setgray
gsave
54 36 m
54 253.44 l
stroke
grestore
gsave
388.8 36 m
388.8 253.44 l
stroke
grestore
gsave
54 36 m
388.8 36 l
stroke
grestore
gsave
54 253.44 m
388.8 253.44 l
stroke
grestore
1.000 setlinewidth
0 setlinecap
0.800 setgray
gsave
61 41 m
208.046875 41 l
209.380208 41 210.046875 41.666667 210.046875 43 c
210.046875 100.6875 l
210.046875 102.020833 209.380208 102.6875 208.046875 102.6875 c
61 102.6875 l
59.666667 102.6875 59 102.020833 59 100.6875 c
59 43 l
59 41.666667 59.666667 41 61 41 c
cl
gsave
1.000 setgray
fill
grestore
stroke
grestore
1.500 setlinewidth
1 setlinejoin
2 setlinecap
[] 0 setdash
0.122 0.467 0.706 setrgbcolor
gsave
63 94.59375 m
83 94.59375 l
stroke
grestore
0.000 setgray
gsave
91.000000 91.093750 translate
0.000000 rotate
0.000000 0.000000 m /L glyphshow
5.571289 0.000000 m /o glyphshow
11.689453 0.000000 m /g glyphshow
18.037109 0.000000 m /space glyphshow
21.215820 0.000000 m /T glyphshow
grestore
0 setlinecap
[5.55 2.4] 0 setdash
1.000 0.498 0.055 setrgbcolor
gsave
63 79.921875 m
83 79.921875 l
stroke
grestore
0.000 setgray
gsave
91.000000 76.421875 translate
0.000000 rotate
0.000000 0.000000 m /L glyphshow
5.571289 0.000000 m /o glyphshow
11.689453 0.000000 m /g glyphshow
18.037109 0.000000 m /space glyphshow
21.215820 0.000000 m /T glyphshow
27.324219 0.000000 m /m glyphshow
37.065430 0.000000 m /space glyphshow
40.244141 0.000000 m /parenleft glyphshow
44.145508 0.000000 m /G glyphshow
51.894531 0.000000 m /a glyphshow
58.022461 0.000000 m /m glyphshow
67.763672 0.000000 m /m glyphshow
77.504883 0.000000 m /a glyphshow
83.632812 0.000000 m /equal glyphshow
92.011719 0.000000 m /one glyphshow
98.374023 0.000000 m /seven glyphshow
104.736328 0.000000 m /one glyphshow
111.098633 0.000000 m /parenright glyphshow
grestore
[1.5 2.475] 0 setdash
0.173 0.627 0.173 setrgbcolor
gsave
63 65.25 m
83 65.25 l
stroke
grestore
0.000 setgray
gsave
91.000000 61.750000 translate
0.000000 rotate
0.000000 0.000000 m /L glyphshow
5.571289 0.000000 m /o glyphshow
11.689453 0.000000 m /g glyphshow
18.037109 0.000000 m /space glyphshow
21.215820 0.000000 m /T glyphshow
27.324219 0.000000 m /m glyphshow
37.065430 0.000000 m /space glyphshow
40.244141 0.000000 m /parenleft glyphshow
44.145508 0.000000 m /G glyphshow
51.894531 0.000000 m /a glyphshow
58.022461 0.000000 m /m glyphshow
67.763672 0.000000 m /m glyphshow
77.504883 0.000000 m /a glyphshow
83.632812 0.000000 m /equal glyphshow
92.011719 0.000000 m /seven glyphshow
98.374023 0.000000 m /five glyphshow
104.736328 0.000000 m /parenright glyphshow
grestore
[9.6 2.4 1.5 2.4] 0 setdash
0.839 0.153 0.157 setrgbcolor
gsave
63 50.578125 m
83 50.578125 l
stroke
grestore
0.000 setgray
gsave
91.000000 47.078125 translate
0.000000 rotate
0.000000 0.000000 m /L glyphshow
5.571289 0.000000 m /o glyphshow
11.689453 0.000000 m /g glyphshow
18.037109 0.000000 m /space glyphshow
21.215820 0.000000 m /T glyphshow
27.324219 0.000000 m /g glyphshow
33.671875 0.000000 m /space glyphshow
36.850586 0.000000 m /parenleft glyphshow
40.751953 0.000000 m /G glyphshow
48.500977 0.000000 m /a glyphshow
54.628906 0.000000 m /m glyphshow
64.370117 0.000000 m /m glyphshow
74.111328 0.000000 m /a glyphshow
80.239258 0.000000 m /equal glyphshow
88.618164 0.000000 m /seven glyphshow
94.980469 0.000000 m /five glyphshow
101.342773 0.000000 m /parenright glyphshow
grestore

end
showpage
