%!PS-Adobe-3.0 EPSF-3.0
%%Title: /media/sf_hellmersjl/bitbucket/hellmers_ms/thesis_doc/Figures/VfoldPlot.eps
%%Creator: matplotlib version 2.2.2, http://matplotlib.org/
%%CreationDate: Tue Dec  3 19:46:36 2019
%%Orientation: portrait
%%BoundingBox: 90 252 522 540
%%EndComments
%%BeginProlog
/mpldict 8 dict def
mpldict begin
/m { moveto } bind def
/l { lineto } bind def
/r { rlineto } bind def
/c { curveto } bind def
/cl { closepath } bind def
/box {
m
1 index 0 r
0 exch r
neg 0 r
cl
} bind def
/clipbox {
box
clip
newpath
} bind def
%!PS-Adobe-3.0 Resource-Font
%%Title: DejaVu Sans
%%Copyright: Copyright (c) 2003 by Bitstream, Inc. All Rights Reserved. Copyright (c) 2006 by Tavmjong Bah. All Rights Reserved. DejaVu changes are in public domain 
%%Creator: Converted from TrueType to type 3 by PPR
25 dict begin
/_d{bind def}bind def
/_m{moveto}_d
/_l{lineto}_d
/_cl{closepath eofill}_d
/_c{curveto}_d
/_sc{7 -1 roll{setcachedevice}{pop pop pop pop pop pop}ifelse}_d
/_e{exec}_d
/FontName /DejaVuSans def
/PaintType 0 def
/FontMatrix[.001 0 0 .001 0 0]def
/FontBBox[-1021 -463 1793 1232]def
/FontType 3 def
/Encoding [ /space /parenleft /parenright /hyphen /period /zero /one /two /three /five /D /F /L /M /P /R /S /V /Y /a /c /e /f /i /l /m /n /o /s /t /u /minus ] def
/FontInfo 10 dict dup begin
/FamilyName (DejaVu Sans) def
/FullName (DejaVu Sans) def
/Notice (Copyright (c) 2003 by Bitstream, Inc. All Rights Reserved. Copyright (c) 2006 by Tavmjong Bah. All Rights Reserved. DejaVu changes are in public domain ) def
/Weight (Book) def
/Version (Version 2.35) def
/ItalicAngle 0.0 def
/isFixedPitch false def
/UnderlinePosition -130 def
/UnderlineThickness 90 def
end readonly def
/CharStrings 33 dict dup begin
/.notdef 0 def
/space{318 0 0 0 0 0 _sc
}_d
/parenleft{390 0 86 -131 310 759 _sc
310 759 _m
266 683 234 609 213 536 _c
191 463 181 389 181 314 _c
181 238 191 164 213 91 _c
234 17 266 -56 310 -131 _c
232 -131 _l
183 -54 146 20 122 94 _c
98 168 86 241 86 314 _c
86 386 98 459 122 533 _c
146 607 182 682 232 759 _c
310 759 _l
_cl}_d
/parenright{390 0 80 -131 304 759 _sc
80 759 _m
158 759 _l
206 682 243 607 267 533 _c
291 459 304 386 304 314 _c
304 241 291 168 267 94 _c
243 20 206 -54 158 -131 _c
80 -131 _l
123 -56 155 17 177 91 _c
198 164 209 238 209 314 _c
209 389 198 463 177 536 _c
155 609 123 683 80 759 _c
_cl}_d
/hyphen{361 0 49 234 312 314 _sc
49 314 _m
312 314 _l
312 234 _l
49 234 _l
49 314 _l
_cl}_d
/period{318 0 107 0 210 124 _sc
107 124 _m
210 124 _l
210 0 _l
107 0 _l
107 124 _l
_cl}_d
/zero{636 0 66 -13 570 742 _sc
318 664 _m
267 664 229 639 203 589 _c
177 539 165 464 165 364 _c
165 264 177 189 203 139 _c
229 89 267 64 318 64 _c
369 64 407 89 433 139 _c
458 189 471 264 471 364 _c
471 464 458 539 433 589 _c
407 639 369 664 318 664 _c
318 742 _m
399 742 461 709 505 645 _c
548 580 570 486 570 364 _c
570 241 548 147 505 83 _c
461 19 399 -13 318 -13 _c
236 -13 173 19 130 83 _c
87 147 66 241 66 364 _c
66 486 87 580 130 645 _c
173 709 236 742 318 742 _c
_cl}_d
/one{636 0 110 0 544 729 _sc
124 83 _m
285 83 _l
285 639 _l
110 604 _l
110 694 _l
284 729 _l
383 729 _l
383 83 _l
544 83 _l
544 0 _l
124 0 _l
124 83 _l
_cl}_d
/two{{636 0 73 0 536 742 _sc
192 83 _m
536 83 _l
536 0 _l
73 0 _l
73 83 _l
110 121 161 173 226 239 _c
290 304 331 346 348 365 _c
380 400 402 430 414 455 _c
426 479 433 504 433 528 _c
433 566 419 598 392 622 _c
365 646 330 659 286 659 _c
255 659 222 653 188 643 _c
154 632 117 616 78 594 _c
78 694 _l
118 710 155 722 189 730 _c
223 738 255 742 284 742 _c
}_e{359 742 419 723 464 685 _c
509 647 532 597 532 534 _c
532 504 526 475 515 449 _c
504 422 484 390 454 354 _c
446 344 420 317 376 272 _c
332 227 271 164 192 83 _c
_cl}_e}_d
/three{{636 0 76 -13 556 742 _sc
406 393 _m
453 383 490 362 516 330 _c
542 298 556 258 556 212 _c
556 140 531 84 482 45 _c
432 6 362 -13 271 -13 _c
240 -13 208 -10 176 -4 _c
144 1 110 10 76 22 _c
76 117 _l
103 101 133 89 166 81 _c
198 73 232 69 268 69 _c
330 69 377 81 409 105 _c
441 129 458 165 458 212 _c
458 254 443 288 413 312 _c
383 336 341 349 287 349 _c
}_e{202 349 _l
202 430 _l
291 430 _l
339 430 376 439 402 459 _c
428 478 441 506 441 543 _c
441 580 427 609 401 629 _c
374 649 336 659 287 659 _c
260 659 231 656 200 650 _c
169 644 135 635 98 623 _c
98 711 _l
135 721 170 729 203 734 _c
235 739 266 742 296 742 _c
370 742 429 725 473 691 _c
517 657 539 611 539 553 _c
539 513 527 479 504 451 _c
481 423 448 403 406 393 _c
_cl}_e}_d
/five{{636 0 77 -13 549 729 _sc
108 729 _m
495 729 _l
495 646 _l
198 646 _l
198 467 _l
212 472 227 476 241 478 _c
255 480 270 482 284 482 _c
365 482 429 459 477 415 _c
525 370 549 310 549 234 _c
549 155 524 94 475 51 _c
426 8 357 -13 269 -13 _c
238 -13 207 -10 175 -6 _c
143 -1 111 6 77 17 _c
77 116 _l
106 100 136 88 168 80 _c
199 72 232 69 267 69 _c
}_e{323 69 368 83 401 113 _c
433 143 450 183 450 234 _c
450 284 433 324 401 354 _c
368 384 323 399 267 399 _c
241 399 214 396 188 390 _c
162 384 135 375 108 363 _c
108 729 _l
_cl}_e}_d
/D{770 0 98 0 711 729 _sc
197 648 _m
197 81 _l
316 81 _l
416 81 490 103 537 149 _c
583 195 607 267 607 365 _c
607 463 583 534 537 580 _c
490 625 416 648 316 648 _c
197 648 _l
98 729 _m
301 729 _l
442 729 546 699 612 641 _c
678 582 711 490 711 365 _c
711 239 677 147 611 88 _c
545 29 441 0 301 0 _c
98 0 _l
98 729 _l
_cl}_d
/F{575 0 98 0 517 729 _sc
98 729 _m
517 729 _l
517 646 _l
197 646 _l
197 431 _l
486 431 _l
486 348 _l
197 348 _l
197 0 _l
98 0 _l
98 729 _l
_cl}_d
/L{557 0 98 0 552 729 _sc
98 729 _m
197 729 _l
197 83 _l
552 83 _l
552 0 _l
98 0 _l
98 729 _l
_cl}_d
/M{863 0 98 0 765 729 _sc
98 729 _m
245 729 _l
431 233 _l
618 729 _l
765 729 _l
765 0 _l
669 0 _l
669 640 _l
481 140 _l
382 140 _l
194 640 _l
194 0 _l
98 0 _l
98 729 _l
_cl}_d
/P{603 0 98 0 569 729 _sc
197 648 _m
197 374 _l
321 374 _l
367 374 402 385 427 409 _c
452 433 465 467 465 511 _c
465 555 452 588 427 612 _c
402 636 367 648 321 648 _c
197 648 _l
98 729 _m
321 729 _l
402 729 464 710 506 673 _c
548 636 569 582 569 511 _c
569 439 548 384 506 348 _c
464 311 402 293 321 293 _c
197 293 _l
197 0 _l
98 0 _l
98 729 _l
_cl}_d
/R{{695 0 98 0 666 729 _sc
444 342 _m
465 334 486 319 506 296 _c
526 272 546 240 566 199 _c
666 0 _l
560 0 _l
467 187 _l
443 235 419 268 397 284 _c
374 300 343 308 304 308 _c
197 308 _l
197 0 _l
98 0 _l
98 729 _l
321 729 _l
404 729 466 711 507 677 _c
548 642 569 589 569 519 _c
569 473 558 434 537 404 _c
515 374 484 353 444 342 _c
197 648 _m
197 389 _l
321 389 _l
}_e{368 389 404 400 428 422 _c
452 444 465 476 465 519 _c
465 561 452 593 428 615 _c
404 637 368 648 321 648 _c
197 648 _l
_cl}_e}_d
/S{{635 0 66 -13 579 742 _sc
535 705 _m
535 609 _l
497 627 462 640 429 649 _c
395 657 363 662 333 662 _c
279 662 237 651 208 631 _c
179 610 165 580 165 542 _c
165 510 174 485 194 469 _c
213 452 250 439 304 429 _c
364 417 _l
437 403 491 378 526 343 _c
561 307 579 260 579 201 _c
579 130 555 77 508 41 _c
460 5 391 -13 300 -13 _c
265 -13 228 -9 189 -2 _c
}_e{150 5 110 16 69 32 _c
69 134 _l
109 111 148 94 186 83 _c
224 71 262 66 300 66 _c
356 66 399 77 430 99 _c
460 121 476 152 476 194 _c
476 230 465 258 443 278 _c
421 298 385 313 335 323 _c
275 335 _l
201 349 148 372 115 404 _c
82 435 66 478 66 534 _c
66 598 88 649 134 686 _c
179 723 242 742 322 742 _c
356 742 390 739 426 733 _c
461 727 497 717 535 705 _c
}_e{_cl}_e}_d
/V{684 0 8 0 676 729 _sc
286 0 _m
8 729 _l
111 729 _l
342 115 _l
573 729 _l
676 729 _l
398 0 _l
286 0 _l
_cl}_d
/Y{611 0 -1 0 613 729 _sc
-1 729 _m
104 729 _l
306 429 _l
507 729 _l
613 729 _l
355 347 _l
355 0 _l
256 0 _l
256 347 _l
-1 729 _l
_cl}_d
/a{{613 0 60 -13 522 560 _sc
343 275 _m
270 275 220 266 192 250 _c
164 233 150 205 150 165 _c
150 133 160 107 181 89 _c
202 70 231 61 267 61 _c
317 61 357 78 387 114 _c
417 149 432 196 432 255 _c
432 275 _l
343 275 _l
522 312 _m
522 0 _l
432 0 _l
432 83 _l
411 49 385 25 355 10 _c
325 -5 287 -13 243 -13 _c
187 -13 142 2 109 33 _c
76 64 60 106 60 159 _c
}_e{60 220 80 266 122 298 _c
163 329 224 345 306 345 _c
432 345 _l
432 354 _l
432 395 418 427 391 450 _c
364 472 326 484 277 484 _c
245 484 215 480 185 472 _c
155 464 127 453 100 439 _c
100 522 _l
132 534 164 544 195 550 _c
226 556 256 560 286 560 _c
365 560 424 539 463 498 _c
502 457 522 395 522 312 _c
_cl}_e}_d
/c{{550 0 55 -13 488 560 _sc
488 526 _m
488 442 _l
462 456 437 466 411 473 _c
385 480 360 484 334 484 _c
276 484 230 465 198 428 _c
166 391 150 339 150 273 _c
150 206 166 154 198 117 _c
230 80 276 62 334 62 _c
360 62 385 65 411 72 _c
437 79 462 90 488 104 _c
488 21 _l
462 9 436 0 410 -5 _c
383 -10 354 -13 324 -13 _c
242 -13 176 12 128 64 _c
}_e{79 115 55 185 55 273 _c
55 362 79 432 128 483 _c
177 534 244 560 330 560 _c
358 560 385 557 411 551 _c
437 545 463 537 488 526 _c
_cl}_e}_d
/e{{615 0 55 -13 562 560 _sc
562 296 _m
562 252 _l
149 252 _l
153 190 171 142 205 110 _c
238 78 284 62 344 62 _c
378 62 412 66 444 74 _c
476 82 509 95 541 113 _c
541 28 _l
509 14 476 3 442 -3 _c
408 -9 373 -13 339 -13 _c
251 -13 182 12 131 62 _c
80 112 55 181 55 268 _c
55 357 79 428 127 481 _c
175 533 241 560 323 560 _c
397 560 455 536 498 489 _c
}_e{540 441 562 377 562 296 _c
472 322 _m
471 371 457 410 431 440 _c
404 469 368 484 324 484 _c
274 484 234 469 204 441 _c
174 413 156 373 152 322 _c
472 322 _l
_cl}_e}_d
/f{352 0 23 0 371 760 _sc
371 760 _m
371 685 _l
285 685 _l
253 685 230 678 218 665 _c
205 652 199 629 199 595 _c
199 547 _l
347 547 _l
347 477 _l
199 477 _l
199 0 _l
109 0 _l
109 477 _l
23 477 _l
23 547 _l
109 547 _l
109 585 _l
109 645 123 690 151 718 _c
179 746 224 760 286 760 _c
371 760 _l
_cl}_d
/i{278 0 94 0 184 760 _sc
94 547 _m
184 547 _l
184 0 _l
94 0 _l
94 547 _l
94 760 _m
184 760 _l
184 646 _l
94 646 _l
94 760 _l
_cl}_d
/l{278 0 94 0 184 760 _sc
94 760 _m
184 760 _l
184 0 _l
94 0 _l
94 760 _l
_cl}_d
/m{{974 0 91 0 889 560 _sc
520 442 _m
542 482 569 511 600 531 _c
631 550 668 560 711 560 _c
767 560 811 540 842 500 _c
873 460 889 403 889 330 _c
889 0 _l
799 0 _l
799 327 _l
799 379 789 418 771 444 _c
752 469 724 482 686 482 _c
639 482 602 466 575 435 _c
548 404 535 362 535 309 _c
535 0 _l
445 0 _l
445 327 _l
445 379 435 418 417 444 _c
398 469 369 482 331 482 _c
}_e{285 482 248 466 221 435 _c
194 404 181 362 181 309 _c
181 0 _l
91 0 _l
91 547 _l
181 547 _l
181 462 _l
201 495 226 520 255 536 _c
283 552 317 560 357 560 _c
397 560 430 550 458 530 _c
486 510 506 480 520 442 _c
_cl}_e}_d
/n{634 0 91 0 549 560 _sc
549 330 _m
549 0 _l
459 0 _l
459 327 _l
459 379 448 417 428 443 _c
408 469 378 482 338 482 _c
289 482 251 466 223 435 _c
195 404 181 362 181 309 _c
181 0 _l
91 0 _l
91 547 _l
181 547 _l
181 462 _l
202 494 227 519 257 535 _c
286 551 320 560 358 560 _c
420 560 468 540 500 501 _c
532 462 549 405 549 330 _c
_cl}_d
/o{612 0 55 -13 557 560 _sc
306 484 _m
258 484 220 465 192 427 _c
164 389 150 338 150 273 _c
150 207 163 156 191 118 _c
219 80 257 62 306 62 _c
354 62 392 80 420 118 _c
448 156 462 207 462 273 _c
462 337 448 389 420 427 _c
392 465 354 484 306 484 _c
306 560 _m
384 560 445 534 490 484 _c
534 433 557 363 557 273 _c
557 183 534 113 490 63 _c
445 12 384 -13 306 -13 _c
227 -13 165 12 121 63 _c
77 113 55 183 55 273 _c
55 363 77 433 121 484 _c
165 534 227 560 306 560 _c
_cl}_d
/s{{521 0 54 -13 472 560 _sc
443 531 _m
443 446 _l
417 458 391 468 364 475 _c
336 481 308 485 279 485 _c
234 485 200 478 178 464 _c
156 450 145 430 145 403 _c
145 382 153 366 169 354 _c
185 342 217 330 265 320 _c
296 313 _l
360 299 405 279 432 255 _c
458 230 472 195 472 151 _c
472 100 452 60 412 31 _c
372 1 316 -13 246 -13 _c
216 -13 186 -10 154 -5 _c
}_e{122 0 89 8 54 20 _c
54 113 _l
87 95 120 82 152 74 _c
184 65 216 61 248 61 _c
290 61 323 68 346 82 _c
368 96 380 117 380 144 _c
380 168 371 187 355 200 _c
339 213 303 226 247 238 _c
216 245 _l
160 257 119 275 95 299 _c
70 323 58 356 58 399 _c
58 450 76 490 112 518 _c
148 546 200 560 268 560 _c
301 560 332 557 362 552 _c
391 547 418 540 443 531 _c
}_e{_cl}_e}_d
/t{392 0 27 0 368 702 _sc
183 702 _m
183 547 _l
368 547 _l
368 477 _l
183 477 _l
183 180 _l
183 135 189 106 201 94 _c
213 81 238 75 276 75 _c
368 75 _l
368 0 _l
276 0 _l
206 0 158 13 132 39 _c
106 65 93 112 93 180 _c
93 477 _l
27 477 _l
27 547 _l
93 547 _l
93 702 _l
183 702 _l
_cl}_d
/u{634 0 85 -13 543 560 _sc
85 216 _m
85 547 _l
175 547 _l
175 219 _l
175 167 185 129 205 103 _c
225 77 255 64 296 64 _c
344 64 383 79 411 110 _c
439 141 453 183 453 237 _c
453 547 _l
543 547 _l
543 0 _l
453 0 _l
453 84 _l
431 50 405 26 377 10 _c
348 -5 315 -13 277 -13 _c
214 -13 166 6 134 45 _c
101 83 85 140 85 216 _c
311 560 _m
311 560 _l
_cl}_d
/minus{838 0 106 272 732 355 _sc
106 355 _m
732 355 _l
732 272 _l
106 272 _l
106 355 _l
_cl}_d
end readonly def

/BuildGlyph
 {exch begin
 CharStrings exch
 2 copy known not{pop /.notdef}if
 true 3 1 roll get exec
 end}_d

/BuildChar {
 1 index /Encoding get exch get
 1 index /BuildGlyph get exec
}_d

FontName currentdict end definefont pop
end
%%EndProlog
mpldict begin
90 252 translate
432 288 0 0 clipbox
gsave
0 0 m
432 0 l
432 288 l
0 288 l
cl
1.000 setgray
fill
grestore
gsave
54 36 m
388.8 36 l
388.8 253.44 l
54 253.44 l
cl
1.000 setgray
fill
grestore
0.800 setlinewidth
1 setlinejoin
0 setlinecap
[] 0 setdash
0.000 setgray
gsave
/o {
gsave
newpath
translate
0.8 setlinewidth
1 setlinejoin
0 setlinecap
0 0 m
0 -3.5 l

gsave
0.000 setgray
fill
grestore
stroke
grestore
} bind def
88.2428 36 o
grestore
/DejaVuSans findfont
10.000 scalefont
setfont
gsave
80.289687 21.406250 translate
0.000000 rotate
0.000000 0.000000 m /zero glyphshow
6.362305 0.000000 m /period glyphshow
9.541016 0.000000 m /five glyphshow
grestore
gsave
/o {
gsave
newpath
translate
0.8 setlinewidth
1 setlinejoin
0 setlinecap
0 0 m
0 -3.5 l

gsave
0.000 setgray
fill
grestore
stroke
grestore
} bind def
135.804 36 o
grestore
gsave
127.851261 21.406250 translate
0.000000 rotate
0.000000 0.000000 m /one glyphshow
6.362305 0.000000 m /period glyphshow
9.541016 0.000000 m /zero glyphshow
grestore
gsave
/o {
gsave
newpath
translate
0.8 setlinewidth
1 setlinejoin
0 setlinecap
0 0 m
0 -3.5 l

gsave
0.000 setgray
fill
grestore
stroke
grestore
} bind def
183.366 36 o
grestore
gsave
175.412835 21.406250 translate
0.000000 rotate
0.000000 0.000000 m /one glyphshow
6.362305 0.000000 m /period glyphshow
9.541016 0.000000 m /five glyphshow
grestore
gsave
/o {
gsave
newpath
translate
0.8 setlinewidth
1 setlinejoin
0 setlinecap
0 0 m
0 -3.5 l

gsave
0.000 setgray
fill
grestore
stroke
grestore
} bind def
230.928 36 o
grestore
gsave
222.974410 21.406250 translate
0.000000 rotate
0.000000 0.000000 m /two glyphshow
6.362305 0.000000 m /period glyphshow
9.541016 0.000000 m /zero glyphshow
grestore
gsave
/o {
gsave
newpath
translate
0.8 setlinewidth
1 setlinejoin
0 setlinecap
0 0 m
0 -3.5 l

gsave
0.000 setgray
fill
grestore
stroke
grestore
} bind def
278.489 36 o
grestore
gsave
270.535984 21.406250 translate
0.000000 rotate
0.000000 0.000000 m /two glyphshow
6.362305 0.000000 m /period glyphshow
9.541016 0.000000 m /five glyphshow
grestore
gsave
/o {
gsave
newpath
translate
0.8 setlinewidth
1 setlinejoin
0 setlinecap
0 0 m
0 -3.5 l

gsave
0.000 setgray
fill
grestore
stroke
grestore
} bind def
326.051 36 o
grestore
gsave
318.097558 21.406250 translate
0.000000 rotate
0.000000 0.000000 m /three glyphshow
6.362305 0.000000 m /period glyphshow
9.541016 0.000000 m /zero glyphshow
grestore
gsave
/o {
gsave
newpath
translate
0.8 setlinewidth
1 setlinejoin
0 setlinecap
0 0 m
0 -3.5 l

gsave
0.000 setgray
fill
grestore
stroke
grestore
} bind def
373.612 36 o
grestore
gsave
365.659133 21.406250 translate
0.000000 rotate
0.000000 0.000000 m /three glyphshow
6.362305 0.000000 m /period glyphshow
9.541016 0.000000 m /five glyphshow
grestore
gsave
187.392188 7.734375 translate
0.000000 rotate
0.000000 0.000000 m /D glyphshow
7.700195 0.000000 m /i glyphshow
10.478516 0.000000 m /s glyphshow
15.688477 0.000000 m /t glyphshow
19.609375 0.000000 m /a glyphshow
25.737305 0.000000 m /n glyphshow
32.075195 0.000000 m /c glyphshow
37.573242 0.000000 m /e glyphshow
43.725586 0.000000 m /space glyphshow
46.904297 0.000000 m /parenleft glyphshow
50.805664 0.000000 m /f glyphshow
54.326172 0.000000 m /m glyphshow
64.067383 0.000000 m /parenright glyphshow
grestore
gsave
/o {
gsave
newpath
translate
0.8 setlinewidth
1 setlinejoin
0 setlinecap
0 0 m
-3.5 0 l

gsave
0.000 setgray
fill
grestore
stroke
grestore
} bind def
54 66.3714 o
grestore
gsave
19.546875 62.574514 translate
0.000000 rotate
0.000000 0.000000 m /minus glyphshow
8.378906 0.000000 m /three glyphshow
14.741211 0.000000 m /zero glyphshow
21.103516 0.000000 m /zero glyphshow
grestore
gsave
/o {
gsave
newpath
translate
0.8 setlinewidth
1 setlinejoin
0 setlinecap
0 0 m
-3.5 0 l

gsave
0.000 setgray
fill
grestore
stroke
grestore
} bind def
54 98.0981 o
grestore
gsave
19.546875 94.301224 translate
0.000000 rotate
0.000000 0.000000 m /minus glyphshow
8.378906 0.000000 m /two glyphshow
14.741211 0.000000 m /five glyphshow
21.103516 0.000000 m /zero glyphshow
grestore
gsave
/o {
gsave
newpath
translate
0.8 setlinewidth
1 setlinejoin
0 setlinecap
0 0 m
-3.5 0 l

gsave
0.000 setgray
fill
grestore
stroke
grestore
} bind def
54 129.825 o
grestore
gsave
19.546875 126.027934 translate
0.000000 rotate
0.000000 0.000000 m /minus glyphshow
8.378906 0.000000 m /two glyphshow
14.741211 0.000000 m /zero glyphshow
21.103516 0.000000 m /zero glyphshow
grestore
gsave
/o {
gsave
newpath
translate
0.8 setlinewidth
1 setlinejoin
0 setlinecap
0 0 m
-3.5 0 l

gsave
0.000 setgray
fill
grestore
stroke
grestore
} bind def
54 161.552 o
grestore
gsave
19.546875 157.754644 translate
0.000000 rotate
0.000000 0.000000 m /minus glyphshow
8.378906 0.000000 m /one glyphshow
14.741211 0.000000 m /five glyphshow
21.103516 0.000000 m /zero glyphshow
grestore
gsave
/o {
gsave
newpath
translate
0.8 setlinewidth
1 setlinejoin
0 setlinecap
0 0 m
-3.5 0 l

gsave
0.000 setgray
fill
grestore
stroke
grestore
} bind def
54 193.278 o
grestore
gsave
19.546875 189.481354 translate
0.000000 rotate
0.000000 0.000000 m /minus glyphshow
8.378906 0.000000 m /one glyphshow
14.741211 0.000000 m /zero glyphshow
21.103516 0.000000 m /zero glyphshow
grestore
gsave
/o {
gsave
newpath
translate
0.8 setlinewidth
1 setlinejoin
0 setlinecap
0 0 m
-3.5 0 l

gsave
0.000 setgray
fill
grestore
stroke
grestore
} bind def
54 225.005 o
grestore
gsave
25.906250 221.208064 translate
0.000000 rotate
0.000000 0.000000 m /minus glyphshow
8.378906 0.000000 m /five glyphshow
14.741211 0.000000 m /zero glyphshow
grestore
gsave
13.468750 133.907500 translate
90.000000 rotate
0.000000 0.000000 m /M glyphshow
8.627930 0.000000 m /e glyphshow
14.780273 0.000000 m /V glyphshow
grestore
1.500 setlinewidth
[5.55 2.4] 0 setdash
gsave
334.8 217.4 54 36 clipbox
69.218182 121.65965 m
72.292562 122.171591 l
75.366942 122.733098 l
78.441322 123.343406 l
81.515702 124.001696 l
84.590083 124.707102 l
87.664463 125.458711 l
90.738843 126.255559 l
93.813223 127.09664 l
96.887603 127.980902 l
99.961983 128.907254 l
103.036364 129.874567 l
106.110744 130.881678 l
109.185124 131.927397 l
112.259504 133.010509 l
115.333884 134.129778 l
118.408264 135.283951 l
121.482645 136.471761 l
124.557025 137.691928 l
127.631405 138.943162 l
130.705785 140.224162 l
133.780165 141.533618 l
136.854545 142.870216 l
139.928926 144.232636 l
143.003306 145.619554 l
146.077686 147.029649 l
149.152066 148.461601 l
152.226446 149.914093 l
155.300826 151.385817 l
158.375207 152.87547 l
161.449587 154.38176 l
164.523967 155.903404 l
167.598347 157.43913 l
170.672727 158.987678 l
173.747107 160.5478 l
176.821488 162.11826 l
179.895868 163.697841 l
182.970248 165.285335 l
186.044628 166.879556 l
189.119008 168.479334 l
192.193388 170.083515 l
195.267769 171.690968 l
198.342149 173.300577 l
201.416529 174.911249 l
204.490909 176.52191 l
207.565289 178.131505 l
210.639669 179.739001 l
213.71405 181.343387 l
216.78843 182.943672 l
219.86281 184.538889 l
222.93719 186.128093 l
226.01157 187.710361 l
229.08595 189.284795 l
232.160331 190.85052 l
235.234711 192.406685 l
238.309091 193.952461 l
241.383471 195.487046 l
244.457851 197.00966 l
247.532231 198.51955 l
250.606612 200.015987 l
253.680992 201.498267 l
256.755372 202.965713 l
259.829752 204.41767 l
262.904132 205.853513 l
265.978512 207.27264 l
269.052893 208.674472 l
272.127273 210.05846 l
275.201653 211.424074 l
278.276033 212.770813 l
281.350413 214.098199 l
284.424793 215.405776 l
287.499174 216.693116 l
290.573554 217.959813 l
293.647934 219.205485 l
296.722314 220.429776 l
299.796694 221.632352 l
302.871074 222.812908 l
305.945455 223.971158 l
309.019835 225.106847 l
312.094215 226.219741 l
315.168595 227.309632 l
318.242975 228.376341 l
321.317355 229.419709 l
324.391736 230.439607 l
327.466116 231.435931 l
330.540496 232.4086 l
333.614876 233.357561 l
336.689256 234.282786 l
339.763636 235.184271 l
342.838017 236.062036 l
345.912397 236.916127 l
348.986777 237.746612 l
352.061157 238.553583 l
355.135537 239.337155 l
358.209917 240.097464 l
361.284298 240.83467 l
364.358678 241.548952 l
367.433058 242.240511 l
370.507438 242.909568 l
373.581818 243.556364 l
stroke
grestore
[9.6 2.4 1.5 2.4] 0 setdash
0.000 0.500 0.000 setrgbcolor
gsave
334.8 217.4 54 36 clipbox
69.218182 122.066068 m
72.292562 122.508642 l
75.366942 123.000058 l
78.441322 123.534932 l
81.515702 124.109825 l
84.590083 124.726641 l
87.664463 125.389812 l
90.738843 126.104541 l
93.813223 126.878587 l
96.887603 127.682736 l
99.961983 128.52165 l
103.036364 129.390473 l
106.110744 130.29681 l
109.185124 131.243397 l
112.259504 132.229592 l
115.333884 133.260725 l
118.408264 134.335168 l
121.482645 135.454679 l
124.557025 136.610658 l
127.631405 137.800729 l
130.705785 139.020178 l
133.780165 140.267879 l
136.854545 141.54054 l
139.928926 142.843942 l
143.003306 144.17201 l
146.077686 145.526949 l
149.152066 146.908391 l
152.226446 148.311309 l
155.300826 149.734214 l
158.375207 151.176568 l
161.449587 152.634676 l
164.523967 154.117531 l
167.598347 155.620594 l
170.672727 157.142118 l
173.747107 158.677215 l
176.821488 160.228315 l
179.895868 161.787489 l
182.970248 163.357047 l
186.044628 164.935439 l
189.119008 166.51872 l
192.193388 168.10994 l
195.267769 169.70733 l
198.342149 171.31056 l
201.416529 172.914584 l
204.490909 174.523047 l
207.565289 176.132041 l
210.639669 177.741802 l
213.71405 179.350239 l
216.78843 180.953151 l
219.86281 182.549064 l
222.93719 184.144328 l
226.01157 185.733556 l
229.08595 187.31785 l
232.160331 188.896676 l
235.234711 190.466989 l
238.309091 192.027303 l
241.383471 193.572814 l
244.457851 195.110406 l
247.532231 196.634299 l
250.606612 198.143059 l
253.680992 199.634117 l
256.755372 201.114772 l
259.829752 202.579282 l
262.904132 204.036906 l
265.978512 205.472395 l
269.052893 206.88702 l
272.127273 208.286228 l
275.201653 209.671197 l
278.276033 211.037237 l
281.350413 212.380127 l
284.424793 213.701489 l
287.499174 215.008616 l
290.573554 216.296971 l
293.647934 217.562922 l
296.722314 218.802786 l
299.796694 220.02537 l
302.871074 221.229417 l
305.945455 222.409676 l
309.019835 223.565701 l
312.094215 224.700597 l
315.168595 225.813227 l
318.242975 226.902548 l
321.317355 227.966197 l
324.391736 229.0032 l
327.466116 230.015755 l
330.540496 231.007438 l
333.614876 231.976762 l
336.689256 232.921094 l
339.763636 233.842019 l
342.838017 234.739131 l
345.912397 235.615255 l
348.986777 236.466465 l
352.061157 237.293053 l
355.135537 238.098274 l
358.209917 238.881054 l
361.284298 239.639866 l
364.358678 240.378738 l
367.433058 241.095028 l
370.507438 241.788137 l
373.581818 242.459984 l
stroke
grestore
2 setlinecap
[] 0 setdash
1.000 0.000 0.000 setrgbcolor
gsave
334.8 217.4 54 36 clipbox
69.218182 46.627531 m
72.292562 48.455247 l
75.366942 45.943177 l
78.441322 45.883636 l
81.515702 47.560246 l
84.590083 50.266106 l
87.664463 52.377914 l
90.738843 54.24621 l
93.813223 59.829479 l
96.887603 57.07024 l
99.961983 57.904455 l
103.036364 58.041466 l
106.110744 59.483109 l
109.185124 59.935263 l
112.259504 61.799176 l
115.333884 63.573411 l
118.408264 64.80744 l
121.482645 67.440079 l
124.557025 69.978324 l
127.631405 73.993697 l
130.705785 73.814173 l
133.780165 75.601648 l
136.854545 79.050962 l
139.928926 79.670675 l
143.003306 81.618064 l
146.077686 84.353684 l
149.152066 84.679055 l
152.226446 87.018837 l
155.300826 90.289506 l
158.375207 91.134787 l
161.449587 93.269841 l
164.523967 95.518829 l
167.598347 98.035082 l
170.672727 100.795129 l
173.747107 103.219535 l
176.821488 105.730781 l
179.895868 109.126371 l
182.970248 112.086538 l
186.044628 114.234469 l
189.119008 115.725067 l
192.193388 118.490704 l
195.267769 121.953672 l
198.342149 126.724625 l
201.416529 126.617356 l
204.490909 128.710101 l
207.565289 131.872067 l
210.639669 136.017558 l
213.71405 137.688693 l
216.78843 140.180641 l
219.86281 141.92061 l
222.93719 145.936013 l
226.01157 147.226596 l
229.08595 150.153875 l
232.160331 153.070826 l
235.234711 155.459724 l
238.309091 157.337859 l
241.383471 159.743184 l
244.457851 162.654839 l
247.532231 168.923707 l
250.606612 167.695669 l
253.680992 170.063563 l
256.755372 171.823017 l
259.829752 174.4091 l
262.904132 176.743109 l
265.978512 179.947883 l
269.052893 181.606506 l
272.127273 184.765322 l
275.201653 186.103907 l
278.276033 187.714915 l
281.350413 190.049754 l
284.424793 191.900674 l
287.499174 193.665126 l
290.573554 195.501368 l
293.647934 197.46917 l
296.722314 200.110039 l
299.796694 201.134331 l
302.871074 202.666858 l
305.945455 204.511846 l
309.019835 206.366876 l
312.094215 207.942532 l
315.168595 209.507068 l
318.242975 211.238407 l
321.317355 213.743957 l
324.391736 214.718507 l
327.466116 216.059302 l
330.540496 217.710551 l
333.614876 219.459046 l
336.689256 220.999932 l
339.763636 222.45594 l
342.838017 224.004412 l
345.912397 225.757096 l
348.986777 227.257065 l
352.061157 228.247486 l
355.135537 229.616112 l
358.209917 231.255254 l
361.284298 232.330031 l
364.358678 233.243448 l
367.433058 234.286386 l
370.507438 235.422597 l
373.581818 236.516007 l
stroke
grestore
0.800 setlinewidth
0 setlinejoin
[] 0 setdash
0.000 setgray
gsave
54 36 m
54 253.44 l
stroke
grestore
gsave
388.8 36 m
388.8 253.44 l
stroke
grestore
gsave
54 36 m
388.8 36 l
stroke
grestore
gsave
54 253.44 m
388.8 253.44 l
stroke
grestore
1.000 setlinewidth
0 setlinecap
0.800 setgray
gsave
61 201.424375 m
142.1875 201.424375 l
143.520833 201.424375 144.1875 202.091042 144.1875 203.424375 c
144.1875 246.44 l
144.1875 247.773333 143.520833 248.44 142.1875 248.44 c
61 248.44 l
59.666667 248.44 59 247.773333 59 246.44 c
59 203.424375 l
59 202.091042 59.666667 201.424375 61 201.424375 c
cl
gsave
1.000 setgray
fill
grestore
stroke
grestore
1.500 setlinewidth
1 setlinejoin
[5.55 2.4] 0 setdash
0.000 setgray
gsave
63 240.34625 m
83 240.34625 l
stroke
grestore
gsave
91.000000 236.846250 translate
0.000000 rotate
0.000000 0.000000 m /S glyphshow
6.347656 0.000000 m /a glyphshow
12.475586 0.000000 m /o glyphshow
18.593750 0.000000 m /space glyphshow
21.772461 0.000000 m /P glyphshow
27.802734 0.000000 m /a glyphshow
33.930664 0.000000 m /u glyphshow
40.268555 0.000000 m /l glyphshow
43.046875 0.000000 m /o glyphshow
grestore
[9.6 2.4 1.5 2.4] 0 setdash
0.000 0.500 0.000 setrgbcolor
gsave
63 225.674375 m
83 225.674375 l
stroke
grestore
0.000 setgray
gsave
91.000000 222.174375 translate
0.000000 rotate
0.000000 0.000000 m /M glyphshow
8.627930 0.000000 m /three glyphshow
14.990234 0.000000 m /Y glyphshow
grestore
2 setlinecap
[] 0 setdash
1.000 0.000 0.000 setrgbcolor
gsave
63 211.0025 m
83 211.0025 l
stroke
grestore
0.000 setgray
gsave
91.000000 207.502500 translate
0.000000 rotate
0.000000 0.000000 m /R glyphshow
6.948242 0.000000 m /M glyphshow
15.576172 0.000000 m /F glyphshow
21.328125 0.000000 m /hyphen glyphshow
24.936523 0.000000 m /L glyphshow
30.507812 0.000000 m /one glyphshow
grestore

end
showpage
